<?xml version="1.0" encoding="utf-8"?>
<!-- Generator: Adobe Illustrator 23.0.3, SVG Export Plug-In . SVG Version: 6.00 Build 0)  -->
<svg version="1.1" id="Capa_1" xmlns="http://www.w3.org/2000/svg" xmlns:xlink="http://www.w3.org/1999/xlink" x="0px" y="0px"
	 viewBox="0 0 356.1 135.9" style="enable-background:new 0 0 356.1 135.9;" xml:space="preserve">
<style type="text/css">
	.st0{fill:#4B4E53;}
	.st1{fill:#7F7F7F;}
	.st2{fill:#3D4039;}
	.st3{fill:#EFEFEF;}
	.st4{fill:none;stroke:#D5E3DC;stroke-miterlimit:10;}
	.st5{fill:#2A2A29;}
	.st6{opacity:0.6;}
	.st7{clip-path:url(#SVGID_2_);fill:#026830;}
	.st8{fill:#DB899E;}
	.st9{fill:#E2E2E2;}
	.st10{fill:#026830;}
	.st11{fill:#FFFFFF;}
	.st12{fill:#434443;}
	.st13{fill:#DFE8EE;}
	.st14{fill:#026830;stroke:#116436;stroke-miterlimit:10;}
	.st15{clip-path:url(#SVGID_4_);fill:#2A2A29;}
	.st16{fill:#D5E3DC;}
	.st17{opacity:0.8;}
	.st18{fill:#7A7A7A;}
	.st19{fill:#EFF0F0;}
	.st20{fill:#909090;}
	.st21{fill:#E1061D;}
</style>
<g>
	<g>
		<path class="st0" d="M22.5,109.5c0.4,13.8,12,24.7,26.1,24.3s25.1-11.9,24.8-25.7c-0.4-13.8-12-24.7-26.1-24.3
			S22.1,95.7,22.5,109.5"/>
		<path class="st1" d="M29.3,109.8c0.3,10.5,9,18.7,19.4,18.4s18.7-9,18.4-19.4c-0.3-10.5-9-18.7-19.4-18.4S29.1,99.4,29.3,109.8"/>
		<path class="st2" d="M35.9,109.7c0.2,7.1,6,12.8,13,12.6c7-0.2,12.5-6.1,12.3-13.3c-0.2-7.1-6-12.8-13-12.6
			C41.2,96.7,35.7,102.6,35.9,109.7"/>
		<path class="st3" d="M32.2,112.5l-0.4-5l10.2-0.2c0.1-0.2,0.1-0.4,0.2-0.5l-7.8-6.3l3.2-3.9l7.3,7.1c0.2-0.1,0.3-0.2,0.5-0.3
			l-1.3-10.3l5-0.3l0.4,10.2c0.3,0.1,0.5,0.1,0.7,0.2l6.5-8l3.7,3.4l-6.9,7.1c0.3,0.4,0.5,0.9,0.7,1.4l10.1-0.5v5.1l-10.1-0.4
			c-0.1,0.2-0.1,0.3-0.2,0.5l7.7,7l-3.5,3.6l-7-7.5c-0.3,0.2-0.6,0.3-0.9,0.4l1.8,10.2l-4.9,0.7l-1-10.7c-0.2-0.1-0.4-0.1-0.6-0.2
			l0.1,0.1l-6.2,8.4l-3.9-3.1l6.9-7.9c-0.3-0.4-0.5-0.8-0.7-1.3L32.2,112.5z"/>
		<path class="st4" d="M32.2,112.5l-0.4-5l10.2-0.2c0.1-0.2,0.1-0.4,0.2-0.5l-7.8-6.3l3.2-3.9l7.3,7.1c0.2-0.1,0.3-0.2,0.5-0.3
			l-1.3-10.3l5-0.3l0.4,10.2c0.3,0.1,0.5,0.1,0.7,0.2l6.5-8l3.7,3.4l-6.9,7.1c0.3,0.4,0.5,0.9,0.7,1.4l10.1-0.5v5.1l-10.1-0.4
			c-0.1,0.2-0.1,0.3-0.2,0.5l7.7,7l-3.5,3.6l-7-7.5c-0.3,0.2-0.6,0.3-0.9,0.4l1.8,10.2l-4.9,0.7l-1-10.7c-0.2-0.1-0.4-0.1-0.6-0.2
			l0.1,0.1l-6.2,8.4l-3.9-3.1l6.9-7.9c-0.3-0.4-0.5-0.8-0.7-1.3L32.2,112.5z"/>
		<path class="st3" d="M285.3,76c-3.7-8-14.4-11.1-22-13.9c0,0-20.7-7.8-31.4-13.8c-19.5-10.9-54.7-36.7-104.1-35.5
			c-21.3,0.5-46.3-2.5-89.5,4.7c0,0-2.3-0.2-3,2.2c0,0-4.3,23.9-5.5,24.9c-0.6,0.5-2.9,1.1-4.9,1.7c-1.9,0.5-3.2,9.2-3.3,10.8
			c-0.1,3.2,1.3,7-1.5,9.4c-8.3,10.9-7.3,37-2.9,38c3.8,0.9,3.9-8.9,6-12.9c2.7-5.2,7.7-10,13.5-11.6c11.7-3.3,38.3-4,41.8,28.5
			c0,0,0.3,3.5,2.4,3.5c19.2,0.2,121.3,1.1,129.3,2.7c0,0,4.5,0.9,3.9-4.6c0,0-0.2-2.6,0-4.5c0.7-7.4,5.3-25.4,24.9-28.9
			c0,0,29.3-5.8,34.1,24.7c0.2,1.5,1.4,8.4,1.5,10.1c0.1,1.3,0.4-0.1,0.5,1.3c0,2.2,4.2-0.4,5.1-0.8c2.4-1.1,4.2-5.3,4.4-7.8
			C285.8,94.5,289.7,85.5,285.3,76"/>
		<path class="st5" d="M269.3,113.6l5.9-0.2c0,0,1.9-35.6-29.7-37.2c-12-0.6-33.3,7.1-31.5,37.4c0,0,0.7-0.1,6.2,0.9
			c0,0-7.1-22.3,19.1-31.6C247.2,80.1,272.9,87.3,269.3,113.6"/>
		<path class="st5" d="M73.5,110.3l4.7-0.1c0,0,2.7-30.1-28-31.8c-14.7-0.8-28.1,6.9-30.9,25.4c0,0,2.2-0.2,4-0.2
			c0,0,0.4-12.5,16.5-18.7C50.1,80.9,73.9,86.7,73.5,110.3"/>
		<path class="st0" d="M219,108.3c0.2,13.8,11.7,24.8,25.8,24.6c14.1-0.2,25.3-11.6,25.1-25.4c-0.2-13.7-11.8-24.8-25.8-24.6
			C230.1,83.1,218.8,94.5,219,108.3"/>
		<path class="st1" d="M225.8,108.2c0.1,10.5,8.7,18.8,19.2,18.7c10.4-0.2,18.8-8.8,18.6-19.2c-0.1-10.5-8.7-18.8-19.2-18.7
			C234,89.1,225.7,97.7,225.8,108.2"/>
		<path class="st2" d="M232.4,108.1c0.1,7.1,5.8,12.8,12.8,12.7c7-0.1,12.5-6,12.4-13.1s-5.8-12.8-12.8-12.7
			C237.9,95.1,232.3,101,232.4,108.1"/>
		<path class="st3" d="M228.7,110.9l-0.3-5.1l10.2-0.1c0.1-0.2,0.1-0.4,0.2-0.5l-7.7-6.4l3.3-3.8l7.3,7.2c0.2-0.1,0.3-0.2,0.5-0.3
			l-1.1-10.3l5-0.3l0.2,10.2c0.3,0.1,0.5,0.1,0.7,0.2l6.6-7.9l3.6,3.5l-7,7c0.3,0.4,0.5,0.9,0.7,1.5l10.1-0.4l-0.1,5.1l-10.1-0.5
			c-0.1,0.2-0.1,0.3-0.2,0.5l7.7,7.1l-3.6,3.5l-6.9-7.6c-0.3,0.1-0.6,0.3-0.9,0.4l1.7,10.2l-4.9,0.7l-0.9-10.7
			c-0.2-0.1-0.4-0.1-0.6-0.2l0.1,0.1l-6.3,8.4l-3.9-3.2l7-7.8c-0.3-0.4-0.5-0.8-0.6-1.3L228.7,110.9z"/>
		<path class="st4" d="M228.7,110.9l-0.3-5.1l10.2-0.1c0.1-0.2,0.1-0.4,0.2-0.5l-7.7-6.4l3.3-3.8l7.3,7.2c0.2-0.1,0.3-0.2,0.5-0.3
			l-1.1-10.3l5-0.3l0.2,10.2c0.3,0.1,0.5,0.1,0.7,0.2l6.6-7.9l3.6,3.5l-7,7c0.3,0.4,0.5,0.9,0.7,1.5l10.1-0.4l-0.1,5.1l-10.1-0.5
			c-0.1,0.2-0.1,0.3-0.2,0.5l7.7,7.1l-3.6,3.5l-6.9-7.6c-0.3,0.1-0.6,0.3-0.9,0.4l1.7,10.2l-4.9,0.7l-0.9-10.7
			c-0.2-0.1-0.4-0.1-0.6-0.2l0.1,0.1l-6.3,8.4l-3.9-3.2l7-7.8c-0.3-0.4-0.5-0.8-0.6-1.3L228.7,110.9z"/>
		<g class="st6">
			<g>
				<g>
					<g>
						<g>
							<defs>
								<rect id="SVGID_1_" x="133" y="63.5" width="15.5" height="7.4"/>
							</defs>
							<clipPath id="SVGID_2_">
								<use xlink:href="#SVGID_1_"  style="overflow:visible;"/>
							</clipPath>
							<path class="st7" d="M133,67.3c0,2,3.5,3.6,7.8,3.6s7.7-1.8,7.7-3.8s-3.5-3.6-7.8-3.6S133,65.3,133,67.3"/>
						</g>
					</g>
				</g>
			</g>
		</g>
		<path class="st8" d="M21.5,64.9c1.9,0.6,9.7-14,9.7-14c2.2-7.6-7-4-7-4L24,47C22.8,51.5,20.2,56.7,21.5,64.9"/>
		<g>
			<g>
				<g>
					<g>
						<path class="st9" d="M281.5,71.5c-1.5-1.2-3.1-2.3-4.7-3.4c-2.2-0.8-4.3-1.9-6.4-3.1c-1-0.4-2-0.7-3-1.1
							c-3.7-1.4-7.2-3-10.7-4.7c-3.4-1.7-7.1-2.8-10.5-4.5c-0.1,0-0.2-0.1-0.2-0.1c-0.9-0.2-1.7-0.3-2.2-0.3
							c0.6,1.5,1.8,3.7,2.4,5.2c0.5,1.2,1.8,2,2.4,3.2c14.1,11.2,22.9,17.1,30.6,21.6c0.7,0.4,4.4,2.2,6.4,2.3
							c0.1-1.4,0.3-2.9,0.4-4.3C285.3,77.8,283.7,74.3,281.5,71.5"/>
					</g>
				</g>
			</g>
		</g>
		<g>
			<g>
				<g>
					<g>
						<path class="st10" d="M213.8,106.4c0-0.2,0-0.3-0.1-0.5c-8.1-0.9-103.8-8-128-9.9c0,0-7.5-24.9-38.9-25.2
							c-8.3-0.1-21.6,4.4-26.7,9.6c-2,2-5.2,7.2-5.6,13c-0.2,2.9,0.4,5.7,1.1,9.8c0.7,4.3,4.5,0.5,4.7-0.9
							c1.5-13.8,11.9-23.8,26.2-23.7c17.2,0.1,31.2,9.8,31.2,31.1c0,0,1.5,2.6,4.9,2.7c24,0.8,121.1,1.3,128.6,2.9
							c0,0,1.3-0.2,2.2-1.7C213.4,111.2,213.6,108.8,213.8,106.4"/>
					</g>
				</g>
			</g>
		</g>
		<path class="st0" d="M65.5,49.7c4.2,2.5,10.5,2.9,15.2,3.3c15.5,1.6,31.1,1.7,46.5,3.8c47.2,6.6,56.7,7.9,80,10.5
			c2.2,0.2,4.4-0.2,6.3-1.3l12.7-5.2c2-0.5,1.8-3.1,0.1-4.3c-4.3-3-12.7-8.1-16.3-9.9c0,0-38.3-27.5-87-25.8
			c-20.8,0.7-41.4,1.2-61.7,6C56,28.1,57,32.6,58.7,37c1.6,4.2,2.4,9.5,6.3,12.1C65.1,49.4,65.3,49.5,65.5,49.7"/>
		<path class="st11" d="M117.2,28.9c0.9,5.7,1.8,22.7,1.7,23.9l-42.8-3.4c0,0-1.4-5.1-1.3-20.7c0-2.3,27.3-3.9,40.7-3.8
			C116.6,25,117,27.8,117.2,28.9"/>
		<path class="st11" d="M206,47c-2.6-2.5-8.8-5.4-11.9-6.8c-0.5-0.2-1,0.3-0.9,0.9c0.6,3.4,3.6,12.8,4.4,13.4c0,0,8,0.7,11.7,1.2
			C209.3,55.7,207.8,48.8,206,47"/>
		<path class="st11" d="M187.5,38c-6.8-2.7-35.2-15.5-54.8-13.9c-0.6,0.1-1.2,2.2-1.1,2.8c0.7,4.1,3.5,18.8,5.2,25.1
			c0.3,1.1,1.3,2,2.6,2.1l49.5,5.7l3.4-7.1L189.5,40C189.1,39.1,188.4,38.4,187.5,38"/>
		<path class="st5" d="M189.9,51.6c0,0-5.3,9.5-0.6,13.6c0,0,13.9,2.2,14.3-7.2C203.6,58.1,202.9,49.7,189.9,51.6"/>
		<path class="st12" d="M245.6,55.5c3.6,10.1,35.5,33.2,41.1,30.9c1.7-0.7-0.1-7.2-0.8-8.5c-2.8-5.9-8.1-9.8-13.7-12
			C264.7,62.9,253.3,57.5,245.6,55.5"/>
		<path class="st13" d="M263.7,65.9l0.8,5.8c0,0,14.2,1.2,15.7,12.7l5.4,2.2C285.6,86.6,289.5,69.2,263.7,65.9"/>
		<g>
			<g>
				<g>
					<g>
						<path class="st14" d="M287,93C287,93,287,92.9,287,93c-0.7-0.5-1.5-0.8-2.6-1c-1.2-0.2-3.3-0.3-5.7-0.5
							c-3.3-0.3-7-0.9-8.9-2.2c0.1,0.4,0.3,0.8,0.4,1.3c0.6,1.1,1.1,2.3,1.5,3.5c0.9,2.1,1.7,4.3,2.3,6.4c1.2,4.1,1.1,8.6,0.5,12.8
							c2.8,0,5.7-0.8,7.7-2.6c0.5-1,1-1.9,1.5-2.8c0.3-0.9,0.7-1.8,1.1-2.6C285.6,101.2,286.8,97.1,287,93"/>
					</g>
				</g>
			</g>
		</g>
		<g class="st6">
			<g>
				<g>
					<g>
						<g>
							<defs>
								<rect id="SVGID_3_" x="59.8" y="30" width="8.7" height="15.6"/>
							</defs>
							<clipPath id="SVGID_4_">
								<use xlink:href="#SVGID_3_"  style="overflow:visible;"/>
							</clipPath>
							<path class="st15" d="M60.6,30.1c0.3-0.2,0.8-0.1,1.6-0.1c1.7,0.1,3.4,0.3,5.1,0.4l1.3,15.1c0-0.3-2.6-1.1-3-1.3
								c-3.3-1.5-4.2-4.8-5.2-8.1c-0.4-1.5-0.8-3.4-0.3-5C60.2,30.6,60.3,30.3,60.6,30.1"/>
						</g>
					</g>
				</g>
			</g>
		</g>
		<polygon class="st12" points="64,31.8 63.9,41.3 67.5,43.7 66.4,33.5 		"/>
		<path class="st8" d="M127.3,8.7l19.8,0.4h1.5c0,0,0.8-5.6-1.5-7.9l-16.5-0.3C130.6,0.9,128.3-1.5,127.3,8.7"/>
		
			<rect x="135.6982" y="0.4866" transform="matrix(0.0194 -0.9998 0.9998 0.0194 124.1368 148.9415)" class="st16" width="4.6" height="21.3994"/>
		<path class="st3" d="M203.5,58.6c0-0.2,0-0.4,0.1-0.6c0,0-0.7-8.4-13.7-6.4c0,0-2.3,4.2-2.5,8.3C192.8,59.8,198.1,59.2,203.5,58.6
			"/>
		<g class="st17">
			<g>
				<g>
					<g>
						<path class="st18" d="M178.9,109.2c-4.6,0-9.8-0.2-15.7-0.5c0,0-77-1.8-77.1-1.8c-4.1-0.1-5.5-5.7-6.7-10.7
							c-0.5-2.1-1-4.1-1.7-5.3c-4.2-7.9-9.5-10.6-17.6-14.7l-0.2-0.1c-3.6-1.8-5.4-8.4-5.6-12.1C54,59.7,54,49.4,54.5,45.2
							c0.1-0.9,0.2-1.7,0.2-2.4c0-0.9,0-2.4-0.1-4c-0.3-5.6-0.7-14.2,2.8-16.1c5.4-3.1,16.3-4.3,22.8-5l1.3-0.1
							c15.5-1.4,24.7-1.8,40.8-2.2c17.4-0.5,33.7,1.6,50,6.4c9.7,2.9,20.6,8.7,30.3,13.8c1.6,0.9,3.2,1.7,4.7,2.5l0.1,0.1
							c0.1,0.2,11.8,16.1,9,41.4c0,0,0.1,3.8-0.5,8.4c-0.5,4.2-1.7,9.9-4.4,13.4c0,0.3-0.2,1.1-1.2,2.1
							C207.8,105.7,200.7,109.2,178.9,109.2 M127.3,15.7c-1.7,0-3.3,0-5,0.1C106.2,16.3,97,16.6,81.5,18l-1.3,0.1
							C73.7,18.8,62.8,20,57.6,23c-3.2,1.8-2.8,10.2-2.6,15.7c0.1,1.6,0.1,3.1,0.1,4c0,0.8-0.1,1.6-0.2,2.4
							c-0.5,4.1-0.5,14.4-0.2,18.7c0.2,3.1,1.8,10,5.4,11.8l0.2,0.1c7.8,4.1,13.5,7,17.8,15c0.7,1.3,1.2,3.3,1.7,5.4
							c1.2,4.8,2.6,10.3,6.3,10.4c0.2,0,77.1,1.8,77.1,1.8c34.1,2,43.8-2.4,46.6-5.2c1.1-1.1,1.1-1.9,1.1-1.9v-0.1V101
							c5.1-6.4,4.8-21.4,4.8-21.6c1.5-13.2-1-23.7-3.4-30.1c-2.4-6.7-5.2-10.5-5.5-11c-1.5-0.8-3.1-1.6-4.7-2.5
							c-9.6-5.1-20.5-10.9-30.2-13.8C157.5,17.8,142.7,15.7,127.3,15.7"/>
					</g>
				</g>
			</g>
		</g>
		<path class="st0" d="M244.6,82.2c-0.1,0-0.2,0-0.4,0c-14.4,0.2-25.9,12.1-25.7,26.4c0.1,7,2.9,13.5,7.9,18.3
			c4.9,4.8,11.3,7.4,18.1,7.4c0.1,0,0.3,0,0.4,0c14.4-0.2,25.9-12.1,25.7-26.4c-0.1-6.9-2.9-13.3-7.8-18.2
			C257.9,84.8,251.4,82.2,244.6,82.2 M244.9,133c-0.1,0-0.2,0-0.3,0c-6.5,0-12.6-2.5-17.3-7c-4.7-4.6-7.4-10.8-7.5-17.4
			c-0.2-13.7,10.8-24.9,24.4-25.1c0.1,0,0.2,0,0.4,0c6.5,0,12.7,2.5,17.4,7.1s7.3,10.7,7.4,17.3C269.5,121.6,258.6,132.8,244.9,133"
			/>
		<path class="st0" d="M244.6,88.2c-0.1,0-0.2,0-0.3,0c-11,0.2-19.9,9.1-19.7,20c0.1,5.2,2.2,10.1,6,13.8s8.7,5.7,14,5.7
			c0.1,0,0.2,0,0.3,0c5.3-0.1,10.3-2.2,14.1-6c3.7-3.8,5.7-8.8,5.7-14c-0.1-5.2-2.2-10.1-6-13.8C254.8,90.3,249.8,88.2,244.6,88.2
			 M258,120.9c-3.5,3.5-8.2,5.5-13.2,5.6c-0.1,0-0.2,0-0.3,0c-4.9,0-9.6-1.9-13.1-5.3s-5.5-8-5.6-12.9s1.8-9.6,5.3-13.1
			s8.2-5.5,13.1-5.6c0.1,0,0.2,0,0.3,0c4.9,0,9.6,1.9,13.1,5.3s5.5,8,5.6,12.9S261.5,117.3,258,120.9"/>
		<path class="st0" d="M247.2,105.3c0-0.5-0.4-0.9-1-0.9c-0.5,0-0.9,0.4-0.9,1c0,0.5,0.4,0.9,1,0.9
			C246.8,106.2,247.2,105.8,247.2,105.3"/>
		<path class="st0" d="M241.3,105.8c0,0.5,0.4,0.9,1,0.9c0.5,0,0.9-0.4,0.9-1c0-0.5-0.4-0.9-1-0.9
			C241.7,104.9,241.2,105.3,241.3,105.8"/>
		<path class="st0" d="M241.8,109.9c0,0.5,0.4,0.9,1,0.9c0.5,0,0.9-0.4,0.9-1c0-0.5-0.4-0.9-1-0.9
			C242.3,108.9,241.8,109.3,241.8,109.9"/>
		<path class="st0" d="M247.9,109.3c0-0.5-0.4-0.9-1-0.9c-0.5,0-0.9,0.4-0.9,1c0,0.5,0.4,0.9,1,0.9
			C247.4,110.3,247.9,109.8,247.9,109.3"/>
		<path class="st0" d="M119.2,46.9c-0.1-1-0.1-2-0.2-3.1l0,0c-0.2-3-0.4-6.1-0.7-9.1v-0.1c-0.1-0.8-0.1-1.6-0.2-2.4v-0.4
			c-0.1-1.1-0.2-2.2-0.4-3.3c-0.1-0.8-0.3-1.6-0.5-2.3c-0.2-0.5-0.3-1.2-0.9-1.7s-1.4-0.6-2.1-0.6H114h-0.2c-0.4,0-0.8,0-1.2,0l0,0
			c-0.2,0-0.5,0-0.7,0h-1.1h-0.1c-0.5,0-1,0-1.4,0l0,0c-3.1,0.1-6.2,0.2-9.1,0.3c-1.4,0.1-2.8,0.1-4.2,0.2c-1.4,0.1-2.8,0.2-4.1,0.3
			c-1.4,0.1-2.7,0.2-4,0.3c-1.3,0.1-2.5,0.2-3.7,0.4c-2.1,0.2-4.1,0.5-5.7,0.8c-0.2,0-0.3,0.1-0.5,0.1c-1.1,0.2-2.2,0.3-3.2,0.9
			c-1,0.5-1.1,1.4-1.1,2v1.3c0,3.7,0.1,6.5,0.3,9.2c0.2,3,0.5,6.1,0.9,9.2c0.1,1.1,1,1.2,1.4,1.2c3.7,0.3,7.5,0.6,11.2,0.9
			c2.4,0.2,4.7,0.4,7.1,0.5l12.9,1c0.6,0,1.2,0.1,1.8,0.2c1.9,0.2,3.9,0.3,6.2,0.5c0.1,0,0.2,0,0.3,0l0,0c0.3,0,0.8,0.1,1.2,0.1
			c1.4,0,2.2-0.5,2.5-1.5c0.2-0.6,0.1-1.1,0.1-1.6L119.2,46.9z M114.1,24.3L114.1,24.3c-0.1,0-0.1,0-0.2,0
			C114,24.3,114,24.3,114.1,24.3 M109,24.6v0.2V24.6L109,24.6z M118.1,51.4c-0.1,0.4-0.3,0.6-1.2,0.6c-0.3,0-0.7,0-1.1-0.1
			c-0.1,0-0.3,0-0.4,0c-2.3-0.2-4.3-0.4-6.2-0.5c-0.6-0.1-1.2-0.1-1.9-0.2l-12.9-1c-2.4-0.2-4.7-0.4-7.1-0.5
			c-3.7-0.3-7.5-0.6-11.2-0.9h-0.2c0,0,0,0,0-0.1c-0.4-3.1-0.7-6.2-0.9-9.2c-0.2-2.6-0.3-5.4-0.3-9.1v-1.3c0-0.5,0.1-0.7,0.4-0.9
			c0.8-0.4,1.8-0.6,2.7-0.7c0.2,0,0.3-0.1,0.5-0.1c1.5-0.3,3.6-0.6,5.6-0.7c1.2-0.1,2.3-0.2,3.6-0.4c1.3-0.1,2.6-0.2,3.9-0.3
			c1.3-0.1,2.7-0.2,4.1-0.3c1.4-0.1,2.8-0.2,4.2-0.2c2.9-0.1,6-0.2,9.1-0.3l0,0l0,0l0,0c0.5,0,1,0,1.5,0h1.1c0.3,0,0.5,0,0.8,0
			c0.4,0,0.8,0,1.1,0h0.2h0.2c0.6,0,1,0,1.2,0.3c0.3,0.2,0.4,0.6,0.5,1c0.2,0.6,0.3,1.3,0.5,2.1c0.2,1,0.3,2.1,0.4,3.2v0.4
			c0.1,0.8,0.1,1.6,0.2,2.4v0.1c0.3,3.1,0.5,6.2,0.7,9.2c0.1,1,0.1,2.1,0.2,3.1l0.2,3.2C118.2,50.6,118.2,51,118.1,51.4"/>
		<path class="st0" d="M246.2,102.2L246.2,102.2c0.1,0,0.1,0,0.2,0l0.1,0.1c0.1,0.1,0.3,0.1,0.4,0.1c0.2,0,0.4-0.1,0.5-0.2l6.1-7.6
			c0.1-0.1,0.2-0.3,0.1-0.5c0-0.2-0.1-0.3-0.2-0.4c-0.1-0.1-0.3-0.1-0.4-0.1c-0.2,0-0.4,0.1-0.5,0.2l-5.7,7.1l-0.4-9.1
			c0-0.3-0.3-0.6-0.6-0.6l0,0c-0.2,0-0.3,0.1-0.4,0.2c-0.1,0.1-0.2,0.3-0.2,0.5l0.4,9.7C245.5,102,245.8,102.2,246.2,102.2 M253,94
			L253,94L253,94L253,94 M246.8,101.5l6-7.4L246.8,101.5z M246.7,101.9C246.7,101.9,246.7,102,246.7,101.9
			C246.7,102,246.7,101.9,246.7,101.9 M245.8,91.6L245.8,91.6L245.8,91.6L245.8,91.6"/>
		<path class="st0" d="M257.4,98.4c0.2-0.3,0.2-0.7,0-0.9c-0.1-0.1-0.3-0.2-0.4-0.2c-0.2,0-0.3,0.1-0.5,0.2l-6.7,7
			c-0.2,0.3-0.2,0.7,0,0.9l0.1,0.1v0.1c0,0.3,0.3,0.6,0.6,0.6c0,0,0,0,0.1,0l9.7-0.9c0.2,0,0.3-0.1,0.4-0.2s0.2-0.3,0.1-0.5
			c0-0.3-0.3-0.6-0.6-0.6h-0.1l-9,0.8L257.4,98.4z M256.9,97.8C257,97.8,257,97.8,256.9,97.8C257,97.8,256.9,97.8,256.9,97.8
			L256.9,97.8 M260.2,104.6C260.2,104.6,260.3,104.6,260.2,104.6C260.3,104.6,260.2,104.6,260.2,104.6L260.2,104.6"/>
		<path class="st0" d="M250.8,109.2L250.8,109.2c-0.4,0-0.7,0.3-0.7,0.6c0,0.1,0,0.1,0,0.2l-0.1,0.1c-0.2,0.3-0.2,0.7,0.1,0.9
			l7.3,6.5c0.1,0.1,0.3,0.2,0.4,0.2c0.2,0,0.4-0.1,0.5-0.2c0.2-0.3,0.2-0.7-0.1-0.9l-6.8-6l9.1,0.1c0.4,0,0.6-0.3,0.6-0.6
			c0-0.2-0.1-0.3-0.2-0.5c-0.1-0.1-0.3-0.2-0.5-0.2L250.8,109.2z M250.7,109.7C250.8,109.7,250.8,109.7,250.7,109.7
			C250.8,109.7,250.8,109.7,250.7,109.7C250.8,109.7,250.8,109.7,250.7,109.7"/>
		<path class="st0" d="M248.2,113.1c-0.1-0.1-0.3-0.2-0.5-0.2s-0.3,0.1-0.4,0.2l-0.1,0.1h-0.1l0,0c-0.4,0-0.6,0.3-0.6,0.7l0.4,9.7
			c0,0.3,0.3,0.6,0.6,0.6l0,0c0.3,0,0.6-0.3,0.6-0.7l-0.4-9.1l6.2,6.6c0.1,0.1,0.3,0.2,0.5,0.2s0.3-0.1,0.4-0.2
			c0.1-0.1,0.2-0.3,0.2-0.4c0-0.2-0.1-0.3-0.2-0.5L248.2,113.1z M247.1,113.6L247.1,113.6L247.1,113.6L247.1,113.6L247.1,113.6
			 M247.6,113.4L247.6,113.4L247.6,113.4L247.6,113.4 M247.8,113.3L247.8,113.3C247.7,113.3,247.7,113.3,247.8,113.3
			C247.7,113.3,247.7,113.3,247.8,113.3 M247.7,113.8L247.7,113.8l6.6,6.9L247.7,113.8z"/>
		<path class="st0" d="M243.4,114.2c0-0.3-0.3-0.6-0.6-0.6c0,0,0,0-0.1,0s-0.1,0-0.2,0l-0.1-0.1c-0.1-0.1-0.2-0.1-0.4-0.1
			s-0.4,0.1-0.5,0.3l-5.6,8c-0.2,0.3-0.1,0.7,0.2,0.9c0.1,0.1,0.2,0.1,0.4,0.1s0.4-0.1,0.5-0.3l5.2-7.4l0.9,9c0,0.3,0.3,0.6,0.6,0.6
			c0,0,0,0,0.1,0c0.2,0,0.3-0.1,0.4-0.2s0.2-0.3,0.1-0.5L243.4,114.2z M242.1,113.9L242.1,113.9L242.1,113.9L242.1,113.9
			 M242.8,114.1L242.8,114.1L242.8,114.1L242.8,114.1 M242.6,114.5L242.6,114.5l1,9.5L242.6,114.5z"/>
		<path class="st0" d="M239.7,111.3c0-0.2-0.1-0.3-0.2-0.4l-0.1-0.1v-0.1c0-0.3-0.3-0.6-0.6-0.6c0,0,0,0-0.1,0l-9.7,1.1
			c-0.2,0-0.3,0.1-0.4,0.2c-0.1,0.1-0.2,0.3-0.1,0.5c0,0.3,0.3,0.6,0.6,0.6c0,0,0,0,0.1,0l9-1l-6.1,6.7c-0.1,0.1-0.2,0.3-0.2,0.5
			s0.1,0.3,0.2,0.4c0.1,0.1,0.3,0.2,0.4,0.2c0.2,0,0.4-0.1,0.5-0.2l6.6-7.2C239.7,111.6,239.7,111.5,239.7,111.3 M238.7,110.5
			C238.7,110.5,238.8,110.5,238.7,110.5L238.7,110.5L238.7,110.5 M232.3,118.4l6.5-7L232.3,118.4z M239.2,111.1L239.2,111.1
			C239.2,111.2,239.2,111.2,239.2,111.1C239.2,111.2,239.2,111.2,239.2,111.1"/>
		<path class="st0" d="M228.6,107l9.7-0.4c0.4,0,0.6-0.3,0.6-0.7c0-0.1,0-0.1,0-0.2l0.1-0.1c0.1-0.1,0.2-0.3,0.1-0.5
			c0-0.2-0.1-0.3-0.2-0.4l-7.6-6.2c-0.1-0.1-0.3-0.1-0.4-0.1c-0.2,0-0.4,0.1-0.5,0.2s-0.2,0.3-0.1,0.5c0,0.2,0.1,0.3,0.2,0.4l7,5.7
			l-9.1,0.3c-0.4,0-0.6,0.3-0.6,0.7C227.9,106.8,228.2,107,228.6,107C228.5,107,228.6,107,228.6,107 M238.5,106L238.5,106L238.5,106
			L238.5,106z M230.9,99L230.9,99L230.9,99L230.9,99"/>
		<path class="st0" d="M240.8,102.9c0.1,0.1,0.3,0.2,0.4,0.2c0.2,0,0.3-0.1,0.5-0.2l0.1-0.1h0.1c0,0,0,0,0.1,0
			c0.2,0,0.3-0.1,0.4-0.2c0.1-0.1,0.2-0.3,0.1-0.5l-1-9.7c0-0.3-0.3-0.6-0.6-0.6c0,0,0,0-0.1,0c-0.2,0-0.3,0.1-0.4,0.2
			c-0.1,0.1-0.2,0.3-0.1,0.5l0.9,9l-6.6-6.2c-0.1-0.1-0.3-0.2-0.4-0.2c-0.2,0-0.3,0.1-0.5,0.2c-0.2,0.3-0.2,0.7,0,0.9L240.8,102.9z
			 M240.9,92.2L240.9,92.2L240.9,92.2L240.9,92.2 M234.1,95.6C234.2,95.6,234.2,95.6,234.1,95.6C234.2,95.6,234.2,95.6,234.1,95.6
			L234.1,95.6"/>
		<path class="st0" d="M47.8,83L47.8,83c-0.1,0-0.2,0-0.4,0c-14.3,0.2-25.8,12-25.6,26.4c0.1,7,2.9,13.5,7.9,18.3
			c4.9,4.8,11.3,7.4,18.1,7.4c0.1,0,0.3,0,0.4,0c14.4-0.2,25.9-12.1,25.7-26.4c-0.1-7-2.9-13.5-7.9-18.3C61.1,85.6,54.6,83,47.8,83
			 M47.8,83.4c0.2,0,0.3,0,0.5,0c-0.3,0-0.6,0-0.8,0C47.6,83.4,47.7,83.4,47.8,83.4 M48.2,133.8c-0.1,0-0.2,0-0.3,0
			c-6.5,0-12.6-2.5-17.3-7c-4.7-4.6-7.4-10.8-7.5-17.4c-0.2-13.7,10.8-24.9,24.4-25.1c0.1,0,0.2,0,0.4,0c6.5,0,12.6,2.5,17.2,7
			c4.7,4.6,7.4,10.8,7.5,17.4C72.8,122.3,61.8,133.6,48.2,133.8"/>
		<path class="st0" d="M47.8,89c-0.1,0-0.2,0-0.3,0c-11,0.2-19.9,9.1-19.7,20c0.1,5.2,2.2,10.1,6,13.8c3.8,3.7,8.7,5.7,14,5.7
			c0.1,0,0.2,0,0.3,0c5.3-0.1,10.3-2.2,14.1-6c3.7-3.8,5.7-8.8,5.7-14c-0.1-5.2-2.2-10.1-6-13.8C58.1,91.1,53.1,89,47.8,89
			 M61.3,121.6c-3.5,3.5-8.2,5.5-13.2,5.6c-0.1,0-0.2,0-0.3,0c-4.9,0-9.6-1.9-13.1-5.3s-5.5-8-5.6-12.9s1.8-9.6,5.3-13.1
			s8.2-5.5,13.1-5.6c0.1,0,0.2,0,0.3,0c4.9,0,9.6,1.9,13.1,5.3s5.5,8,5.6,12.9S64.7,118.1,61.3,121.6"/>
		<path class="st0" d="M50.5,106.1c0-0.5-0.4-0.9-1-0.9c-0.5,0-0.9,0.4-0.9,1c0,0.5,0.4,0.9,1,0.9C50.1,107,50.5,106.6,50.5,106.1"
			/>
		<path class="st0" d="M44.5,106.6c0,0.5,0.4,0.9,1,0.9c0.5,0,0.9-0.4,0.9-1c0-0.5-0.4-0.9-1-0.9C44.9,105.7,44.5,106.1,44.5,106.6"
			/>
		<path class="st0" d="M45.1,110.6c0,0.5,0.4,0.9,1,0.9c0.5,0,0.9-0.4,0.9-1c0-0.5-0.4-0.9-1-0.9C45.5,109.7,45.1,110.1,45.1,110.6"
			/>
		<path class="st0" d="M51.1,110.1c0-0.5-0.4-0.9-1-0.9c-0.5,0-0.9,0.4-0.9,1c0,0.5,0.4,0.9,1,0.9C50.7,111.1,51.1,110.6,51.1,110.1
			"/>
		<path class="st0" d="M49.4,103C49.4,103,49.5,103,49.4,103c0.1,0,0.1,0,0.2,0l0.1,0.1c0.1,0.1,0.3,0.1,0.4,0.1
			c0.2,0,0.4-0.1,0.5-0.2l6.1-7.6c0.1-0.1,0.2-0.3,0.1-0.5c0-0.2-0.1-0.3-0.2-0.4c-0.1-0.1-0.3-0.1-0.4-0.1c-0.2,0-0.4,0.1-0.5,0.2
			l-5.7,7.1l-0.4-9.1c0-0.3-0.3-0.6-0.6-0.6l0,0c-0.2,0-0.3,0.1-0.4,0.2c-0.1,0.1-0.2,0.3-0.2,0.5l0.4,9.7
			C48.8,102.7,49.1,103,49.4,103 M56.3,94.8L56.3,94.8L56.3,94.8C56.2,94.8,56.2,94.8,56.3,94.8 M50.1,102.3l6-7.4L50.1,102.3z
			 M50,102.7L50,102.7L50,102.7 M49,92.4C49.1,92.4,49.1,92.4,49,92.4C49.1,92.4,49.1,92.4,49,92.4L49,92.4"/>
		<path class="st0" d="M60.7,99.2c0.2-0.3,0.2-0.7,0-0.9c-0.1-0.1-0.3-0.2-0.4-0.2c-0.2,0-0.3,0.1-0.5,0.2l-6.7,7
			c-0.2,0.3-0.2,0.7,0,0.9l0.1,0.1v0.1c0,0.3,0.3,0.6,0.6,0.6c0,0,0,0,0.1,0l9.7-0.9c0.2,0,0.3-0.1,0.4-0.2s0.2-0.3,0.1-0.5
			c0-0.3-0.3-0.6-0.6-0.6c0,0,0,0-0.1,0l-9,0.8L60.7,99.2z M60.2,98.6L60.2,98.6L60.2,98.6L60.2,98.6 M63.5,105.4L63.5,105.4
			L63.5,105.4L63.5,105.4"/>
		<path class="st0" d="M54.1,110L54.1,110L54.1,110c-0.4,0-0.6,0.3-0.6,0.6c0,0.1,0,0.1,0,0.2l-0.1,0.1c-0.2,0.3-0.2,0.7,0.1,0.9
			l7.3,6.5c0.1,0.1,0.3,0.2,0.4,0.2c0.2,0,0.4-0.1,0.5-0.2c0.2-0.3,0.2-0.7-0.1-0.9l-6.8-6l9.1,0.1c0.4,0,0.6-0.3,0.6-0.6
			c0-0.2-0.1-0.3-0.2-0.5c-0.1-0.1-0.3-0.2-0.5-0.2L54.1,110z"/>
		<path class="st0" d="M51.5,113.8c-0.1-0.1-0.3-0.2-0.5-0.2s-0.3,0.1-0.4,0.2l-0.1,0.1h-0.1l0,0c0,0,0,0-0.1,0
			c-0.3,0-0.6,0.3-0.6,0.7l0.4,9.7c0,0.3,0.3,0.6,0.6,0.6l0,0c0.3,0,0.6-0.3,0.6-0.7l-0.4-9.1l6.2,6.6c0.1,0.1,0.3,0.2,0.5,0.2
			s0.3-0.1,0.4-0.2c0.1-0.1,0.2-0.3,0.2-0.4c0-0.2-0.1-0.3-0.2-0.5L51.5,113.8z M50.4,114.4L50.4,114.4L50.4,114.4L50.4,114.4
			L50.4,114.4 M51,114.1L51,114.1L51,114.1L51,114.1 M51,114.6L51,114.6l6.6,6.9L51,114.6z"/>
		<path class="st0" d="M46.7,115c0-0.3-0.3-0.6-0.6-0.6c0,0,0,0-0.1,0s-0.1,0-0.2,0l-0.1-0.1c-0.1-0.1-0.2-0.1-0.4-0.1
			s-0.4,0.1-0.5,0.3l-5.6,8c-0.2,0.3-0.1,0.7,0.2,0.9c0.1,0.1,0.2,0.1,0.4,0.1s0.4-0.1,0.5-0.3l5.2-7.4l0.9,9c0,0.3,0.3,0.6,0.6,0.6
			c0,0,0,0,0.1,0c0.2,0,0.3-0.1,0.4-0.2c0.1-0.1,0.2-0.3,0.1-0.5L46.7,115z M45.3,114.7L45.3,114.7
			C45.4,114.7,45.4,114.7,45.3,114.7C45.4,114.7,45.3,114.7,45.3,114.7 M46,114.9C46.1,114.9,46.1,114.9,46,114.9
			C46.1,114.9,46,114.8,46,114.9L46,114.9 M45.9,115.3L45.9,115.3l1,9.5L45.9,115.3z"/>
		<path class="st0" d="M42.8,111.6l-0.1-0.1v-0.1c0-0.3-0.3-0.6-0.6-0.6c0,0,0,0-0.1,0l-9.7,1.1c-0.2,0-0.3,0.1-0.4,0.2
			s-0.2,0.3-0.1,0.5c0,0.3,0.3,0.6,0.6,0.6c0,0,0,0,0.1,0l9-1l-6.1,6.7c-0.2,0.3-0.2,0.7,0,0.9c0.1,0.1,0.3,0.2,0.4,0.2
			c0.2,0,0.4-0.1,0.5-0.2l6.6-7.2C43.1,112.3,43,111.9,42.8,111.6 M42,111.3L42,111.3L42,111.3L42,111.3 M35.6,119.2l6.5-7l0,0
			L35.6,119.2z M42.5,111.9L42.5,111.9L42.5,111.9L42.5,111.9"/>
		<path class="st0" d="M31.8,107.8l9.7-0.4c0.4,0,0.6-0.3,0.6-0.7c0-0.1,0-0.1,0-0.2l0.1-0.1c0.1-0.1,0.2-0.3,0.1-0.5
			c0-0.2-0.1-0.3-0.2-0.4l-7.6-6.2c-0.1-0.1-0.3-0.1-0.4-0.1c-0.2,0-0.4,0.1-0.5,0.2s-0.2,0.3-0.1,0.5c0,0.2,0.1,0.3,0.2,0.4l7,5.7
			l-9.1,0.3c-0.4,0-0.6,0.3-0.6,0.7C31.2,107.6,31.5,107.8,31.8,107.8L31.8,107.8 M41.8,106.8L41.8,106.8L41.8,106.8L41.8,106.8
			 M34.2,99.8L34.2,99.8L34.2,99.8L34.2,99.8"/>
		<path class="st0" d="M44.1,103.7c0.1,0.1,0.3,0.2,0.4,0.2c0.2,0,0.3-0.1,0.5-0.2l0.1-0.1h0.1c0,0,0,0,0.1,0c0.2,0,0.3-0.1,0.4-0.2
			c0.1-0.1,0.2-0.3,0.1-0.5l-1-9.7c0-0.3-0.3-0.6-0.6-0.6c0,0,0,0-0.1,0c-0.2,0-0.3,0.1-0.4,0.2c-0.1,0.1-0.2,0.3-0.1,0.5l0.9,9
			l-6.6-6.2c-0.1-0.1-0.3-0.2-0.4-0.2l0,0c-0.2,0-0.3,0.1-0.5,0.2c-0.2,0.3-0.2,0.7,0,0.9L44.1,103.7z M44.2,93L44.2,93L44.2,93
			L44.2,93 M37.4,96.4C37.4,96.4,37.5,96.4,37.4,96.4C37.5,96.4,37.4,96.4,37.4,96.4L37.4,96.4"/>
		<path class="st0" d="M287.9,87.2c0.8-2.9,0.2-6.2-0.5-8.4c-0.8-2.7-2.2-5-4.1-7c-1.3-1.3-2.8-2.6-4.7-3.6c-3.3-2-6.8-3.4-10.3-4.8
			l0,0c-1-0.4-2.1-0.8-3.1-1.3c-2.2-0.9-4.4-1.9-6.6-2.7l0,0c-3-1.3-6.1-2.5-9.1-3.9c-0.2-0.1-0.4-0.1-0.6-0.2l-0.2-0.1
			c-0.3-0.1-0.6-0.2-0.9-0.3c-0.4-0.2-0.8-0.3-1.1-0.4l0,0c-6.6-2.8-11.8-5.3-15.4-7.4c-3.6-2-7.2-4.1-10.7-6.1
			c-12.8-7.4-26-15-40.3-20.3c-10.2-3.7-20.5-5.9-30.7-7.2V9.3c0.1-0.5,0.2-1.6-0.5-4.5V4.7c0-0.1-0.1-0.3-0.1-0.4V4.2
			c-0.3-1.4-0.6-3-2.2-3.6c-0.4-0.1-0.8-0.2-1.3-0.2l0,0l0,0l0,0h-0.1c-0.4,0-0.8,0-1.1,0l0,0c-5.1-0.1-9.3-0.2-13.4-0.4
			c-0.1,0-0.1,0-0.2,0l0,0l0,0c-1.4,0-1.9,0.9-2.1,1.7c0,0-0.5,1.7-0.9,3.4c-0.3,1.3-0.5,2.1-0.6,2.7c0,0.1-0.1,0.1-0.1,0.2v0.1
			c-0.1,0.6-0.1,0.7,0,0.8V12c-3.3-0.1-6.5-0.1-9.7-0.1c-1.7,0-3.5,0-5.4,0c-25.2,0.2-42.5,1.4-73.9,5c0,0-2.7,0.3-3.4,3.1l0,0
			c-1.8,9.3-4.9,22.7-5.6,24.4c0,0,0,0,0,0.1s-0.1,0.4-0.2,0.5c0,0.1,0,0.1-0.1,0.2h-0.1c-0.1,0-0.2,0-0.3,0c-0.3,0-0.6,0-0.9,0.1
			c-0.3,0-0.6,0.1-0.8,0.1c-0.3,0-0.5,0.1-0.8,0.2c-0.3,0.1-0.6,0.1-0.9,0.2c-0.1,0-0.3,0.1-0.4,0.1h-0.1c-0.1,0-0.3,0.1-0.4,0.2
			c-0.4,0.3-0.6,0.8-0.6,1.1c-0.2,0.6-0.3,1.2-0.5,1.8l-0.1,0.4c-0.1,0.5-0.3,0.9-0.4,1.4c-0.2,0.5-0.3,1-0.4,1.5s-0.3,1-0.4,1.5
			c-0.1,0.6-0.2,1.1-0.3,1.6c-0.1,0.6-0.2,1.2-0.3,1.7c-0.1,0.6-0.1,1.2-0.1,1.9s0,1.3,0,2s0.1,1.4,0.1,2.1c0,0.2,0,0.4,0.1,0.6
			c0,0.1,0,0.1,0,0.2v0.2l0,0c0,0.2,0,0.4,0.1,0.5c-0.2,0.4-0.4,0.7-0.6,1.1c-6.4,8.1-8.2,20.7-5.3,37.3c0.3,1.4,1.1,2.2,2.4,2.2
			c0.1,0,0.2,0,0.3,0c1.5-0.1,2.8-1.2,3.3-2.7l0,0c0-0.1,1.3-6.5,2.8-9.6c2-4.3,5.9-7.9,6.4-8.3c3.5-2.8,9.4-4.8,14.7-5.1
			c1-0.1,1.9-0.1,2.8-0.1c4.3,0,8.1,0.6,11.2,1.7c8.8,3.3,17.1,8.9,18.6,27.6c0.2,2.3,2.1,4,4.3,4.1c18.7,0.2,112.6,1.1,128,2.6
			c0.2,0,0.3,0,0.5,0c2.4,0,4.5-1.8,4.8-4.2c0.1-0.7,0.1-1.5,0-2.3c0-0.1,0-1.2,0.2-3c0.4-4,3.3-24,24.2-27.8c0,0,2.1-0.4,5.3-0.4
			c4.7,0,11.5,0.9,17.4,5c6.2,4.3,10,11.4,11.5,20.8c0.2,1.6,0.4,3.1,0.5,4.7c0.1,1.2,0.2,2.6,0.2,4c0,0.8,0.4,1.2,0.7,1.5
			c0.3,0.2,0.7,0.3,1.2,0.3c0.9,0,2.1-0.3,3.6-1c2.3-1,3.8-3,4.6-6.1c0.3-1.1,0.6-2.3,1-3.5c1.4-4.8,3-10.3,2.5-16
			C287.9,87.3,287.9,87.3,287.9,87.2 M249,55.7c-0.1,0-0.3-0.1-0.5-0.2C248.7,55.6,248.8,55.7,249,55.7 M246.9,54.9L246.9,54.9
			L246.9,54.9z M246.5,54.8L246.5,54.8L246.5,54.8L246.5,54.8z M245.9,55.5L245.9,55.5L245.9,55.5L245.9,55.5 M245.2,54.2
			L245.2,54.2c-1.1-0.5-2.2-1-3.3-1.4C243,53.2,244.1,53.7,245.2,54.2 M226,57c0.7,0.5,1.1,1.4,1,2.2c-0.1,0.5-0.4,0.8-1,0.9
			c0,0,0,0-0.1,0l-12.7,5.2l0,0c-1.5,0.8-3.1,1.2-4.8,1.2c-0.4,0-0.7,0-1.1-0.1c-3.2-0.4-5.9-0.7-8.3-0.9c0.9-0.3,1.7-0.8,2.5-1.3
			c1.6-1.2,2.6-3,2.8-5.1c0-0.1,0-0.2,0-0.3v-0.1c0-0.1,0-0.1,0-0.3l0,0c0-0.1-0.1-0.8-0.5-1.8c-0.1-0.2-0.2-0.4-0.3-0.6
			c0.8,0.1,1.6,0.1,2.4,0.2c1,0.1,1.9,0.1,2.6,0.2h0.1c0.3,0,0.5-0.1,0.7-0.3s0.2-0.5,0.2-0.7c-0.5-2-1.8-6.9-3.4-8.5
			c-3-2.9-10.3-6.2-12.4-7.1c-0.1-0.1-0.3-0.1-0.4-0.1c-0.3,0-0.6,0.1-0.8,0.4c-0.2,0.3-0.3,0.7-0.3,1.1c0.4,2.3,1.8,6.7,3,9.9
			c0,0,0,0-0.1,0c-0.4,0-0.9,0-1.4,0c-0.1,0-0.3,0-0.4,0l0,0c-0.1,0-0.2,0-0.3,0V51l-3.3-12.5l0,0c-0.4-1-1.2-1.8-2.2-2.2
			c-0.7-0.2-1.6-0.6-2.6-1c-9.2-3.4-30.7-11.3-48-11.3h-0.3h-0.3c-1.7,0-3.3,0-4.8,0.3c-0.3,0.1-0.6,0.3-0.8,0.6
			c-0.5,0.8-0.7,2.2-0.6,2.7c1,4.3,4.2,18.8,6.1,25c0.4,1.3,1.6,2.2,3,2.3l47.6,6.7c0.1,0.9,0.3,1.8,0.7,2.6
			c-13-1.6-27.4-3.6-59.8-8.1c-0.6-17.2-1.4-32.2-1.6-34.7c0.1,0,0.3,0,0.4,0c23.7,0,48.3,8,57.9,12.2c4.8,2.1,20,10.4,25.4,13.6
			C214.4,49.7,221.9,54.3,226,57 M192.7,65.3c-1.5,0-2.6-0.1-3-0.2c-1-1-1.6-2.4-1.6-4.1c4.8-0.1,9.6-0.6,14.8-1.2
			c-0.3,1.4-1.1,2.6-2.2,3.4C198.4,65,195.1,65.3,192.7,65.3 M196.8,65.4C196.8,65.4,196.7,65.4,196.8,65.4L196.8,65.4
			C196.7,65.4,196.8,65.4,196.8,65.4 M194.8,65.7L194.8,65.7L194.8,65.7L194.8,65.7 M192.7,66.2L192.7,66.2c-0.1,0-0.2,0-0.2,0
			C192.6,66.2,192.6,66.2,192.7,66.2 M190.4,66.1c-0.3,0-0.5,0-0.6-0.1C189.9,66,190.1,66.1,190.4,66.1 M189.2,65.9
			c-0.1-0.1-0.2-0.2-0.4-0.3C189,65.7,189.1,65.8,189.2,65.9 M186.8,60.4l-47.5-6.7l0,0c-0.9-0.1-1.7-0.7-2-1.4
			c-1.9-6.1-6-24.7-6.1-24.9c-0.1-0.4,0.1-1.1,0.2-1.3l0,0c0.1-0.3,0.4-0.5,0.6-0.5c1.5-0.2,3.1-0.2,4.8-0.2
			c17.1,0,38.4,7.9,47.6,11.2c1,0.4,1.9,0.7,2.6,1c0.7,0.2,1.2,0.8,1.5,1.4l3.3,12.3l0,0c-0.4,0-0.7,0.1-1.1,0.1h-0.1
			c-0.3,0-0.6,0.1-0.9,0.3c-0.2,0.1-0.3,0.3-0.4,0.5l0,0c-0.1,0.2-0.2,0.3-0.3,0.5l-0.1,0.2l-0.1,0.1l-0.1,0.2l0,0
			C188,54.7,186.9,57.6,186.8,60.4 M188,64.4c-0.4-0.8-0.7-1.7-0.7-2.6C187.3,62.7,187.6,63.6,188,64.4 M187.2,61.3L187.2,61.3
			L187.2,61.3z M137.5,53.4c-0.3-0.3-0.5-0.6-0.6-0.9C137.1,52.8,137.3,53.1,137.5,53.4 M136.3,50.3c-0.7-2.6-1.6-6.1-2.4-9.6
			C134.8,44.2,135.6,47.8,136.3,50.3 M131.9,33.9c-0.2-0.8-0.4-1.6-0.5-2.3C131.5,32.3,131.7,33.1,131.9,33.9 M136.2,24.5
			L136.2,24.5c0.2,0,0.4,0,0.7,0C136.6,24.5,136.4,24.5,136.2,24.5 M187.3,36.7c0.2,0.1,0.3,0.1,0.5,0.2
			C187.6,36.9,187.5,36.8,187.3,36.7 M193.3,52.5c0.1,0,0.2,0,0.4,0c0.4,0,0.9,0,1.3,0c0.5,0,1,0.1,1.5,0.2c0.4,0.1,0.9,0.2,1.3,0.3
			c0.9,0.3,1.7,0.6,2.4,1.1c0.3,0.2,0.5,0.4,0.7,0.5c0.4,0.3,0.8,0.7,1.1,1.2c0.1,0.2,0.3,0.4,0.4,0.6c0.2,0.3,0.3,0.5,0.4,0.8
			c0.3,0.6,0.4,1.1,0.4,1.3c-5.5,0.6-10.1,1.1-14.9,1.2c0.3-2.5,1.3-5,1.9-6.3c0-0.1,0.1-0.1,0.1-0.2c0-0.1,0.1-0.2,0.1-0.2v-0.1
			c0-0.1,0.1-0.1,0.1-0.2c0,0,0,0,0.1,0s0.1,0,0.2,0h0.1c0.2,0,0.4-0.1,0.6-0.1c0.4,0,0.8-0.1,1.2-0.1
			C192.8,52.5,193,52.5,193.3,52.5 M193.3,51.6c0.1,0,0.2,0,0.4,0c0.1,0,0.2,0,0.3,0C193.8,51.6,193.5,51.6,193.3,51.6 M205.5,55
			c-1-0.1-2-0.2-2.8-0.2c-0.3-0.4-0.7-0.8-1-1.1c-0.3-0.2-0.5-0.4-0.8-0.6c-0.8-0.5-1.7-1-2.8-1.3c-0.4-0.1-0.9-0.2-1.4-0.3h-0.1
			c-0.7-1.9-1.3-3.8-2-6c-0.3-0.9-0.5-1.8-0.7-2.5c-0.1-0.4-0.2-0.8-0.3-1.1c0-0.1,0-0.1-0.1-0.2c0-0.1-0.1-0.2-0.1-0.3l0.2,0.1
			c1.4,0.6,2.9,1.3,4.3,2c1.7,0.9,3.7,1.9,5.6,3.3c0.3,0.2,0.6,0.4,0.9,0.7c0,0,0.1,0.1,0.2,0.1c0.1,0.1,0.4,0.3,0.5,0.4
			c0,0.1,0.1,0.1,0.1,0.2c0.9,0.9,2,3.6,3,7.4C207.4,55.2,206.5,55.1,205.5,55 M208.7,56.1L208.7,56.1L208.7,56.1L208.7,56.1
			c-1.2-0.1-3.1-0.2-4.7-0.4C205.6,55.9,207.4,56,208.7,56.1 M201.9,55.1L201.9,55.1c-0.1-0.1-0.2-0.3-0.4-0.4
			C201.6,54.8,201.7,55,201.9,55.1 M189.6,52.4c0.1-0.1,0.1-0.3,0.2-0.4C189.7,52.1,189.6,52.3,189.6,52.4 M125,21.4
			c0.1,2,0.9,17.1,1.5,34.6c-8.5-1.1-17.1-1.6-25.5-2.2c-6.7-0.4-13.5-0.8-20.3-1.5c-0.5,0-1-0.1-1.5-0.1h-0.1
			c-4.4-0.4-9.8-1-13.4-3.1c-0.2-0.1-0.4-0.3-0.6-0.4c-2.8-1.9-3.9-5.4-5-8.7c-0.3-1-0.7-2.1-1.1-3.1c-1-2.6-1.9-5.5-0.9-7.3
			c0.5-1,1.5-1.6,3.1-2c19.3-4.5,39.2-5.2,58.6-5.9l3.1-0.1C123.6,21.4,124.3,21.4,125,21.4 M124.9,21C125,21,125,21,124.9,21
			C125,21,125,21,124.9,21C125,21,125,21,124.9,21 M125.9,20.6c0.4,0,0.7,0,1.1,0c0.1,0,0.2,0,0.4,0
			C126.9,20.5,126.4,20.5,125.9,20.6 M126.5,21c-0.2,0-0.3,0-0.5,0l0,0C126.2,21,126.4,21,126.5,21 M129.8,1.5
			c0.2-0.7,0.4-0.8,0.8-0.8h0.1c4.1,0.2,8.4,0.4,13.5,0.4l0,0c0.4,0,0.8,0,1.2,0s0.7,0.1,1,0.2c0.8,0.3,1,1.2,1.3,2.7v0.1
			c0,0.1,0.1,0.3,0.1,0.4v0.1c0.5,2,0.5,3.1,0.5,3.6c-0.2,0-0.6,0-1.1,0l-14.6-0.6l-4.4-0.2C128.6,5.8,129.6,1.9,129.8,1.5
			 M147.2,9.9h0.3h0.8v3.4c-6.8-0.8-13.5-1.2-20.1-1.3V9.2L147.2,9.9z M117.2,12.2c0.3,0,0.7,0,1,0c-0.4,0-0.9,0-1.3,0
			C117,12.2,117.1,12.2,117.2,12.2 M72.7,14.2c-2,0.2-4.1,0.3-6.2,0.5C68.6,14.6,70.6,14.4,72.7,14.2 M37.6,17.7
			c-0.6,0.2-1.7,0.7-2.2,2.1C35.9,18.4,37,17.9,37.6,17.7 M35.6,20.2c0.5-1.9,2.3-2.2,2.3-2.2c1.5-0.2,2.9-0.3,4.4-0.5
			c0.4,1.4-0.1,2.8-0.7,4.3l0,0c-1,2.7-2.3,5.2-3.6,7.7v0.1c-0.4,0.8-0.8,1.6-1.2,2.4c-0.9,1.9-1.9,4-2.7,6.2
			c-0.7,1.9-1.9,5.1-3.9,5.9C31.3,40.5,35.4,21.4,35.6,20.2 M42.6,20.5c-0.2,0.5-0.4,1-0.5,1.5c-0.8,2-1.7,4-2.6,5.9
			c0.9-1.9,1.9-3.8,2.6-5.9C42.2,21.5,42.4,21,42.6,20.5 M37.6,32.5c-0.8,1.6-1.6,3.4-2.4,5.3C36,35.9,36.8,34.1,37.6,32.5 M35,37.3
			c0.7-1.8,1.5-3.4,2.2-5C36.4,33.8,35.7,35.5,35,37.3 M32.6,43.4c-0.2,0.2-0.4,0.5-0.6,0.7C32.2,43.9,32.4,43.6,32.6,43.4 M30,44.8
			c0.1,0,0.1,0,0.2-0.1C30.1,44.7,30.1,44.7,30,44.8L30,44.8 M28.4,45.6L28.4,45.6c-0.1,0-0.2,0-0.3,0
			C28.2,45.6,28.3,45.6,28.4,45.6 M21.8,59.1c0-0.6,0.1-1.2,0.1-1.8c0.1-0.6,0.1-1.1,0.2-1.7c0.1-0.5,0.2-1,0.3-1.6
			c0.1-0.5,0.2-1,0.4-1.5c0.1-0.4,0.3-0.9,0.4-1.4s0.3-0.9,0.4-1.4l0.1-0.4c0.2-0.6,0.4-1.2,0.6-1.9c0-0.1,0.1-0.2,0.1-0.3h0.1h0.1
			c0.1,0,0.3-0.1,0.4-0.1c0.3-0.1,0.5-0.2,0.8-0.2c0.2-0.1,0.5-0.1,0.7-0.2c0.3-0.1,0.5-0.1,0.8-0.1s0.5-0.1,0.8-0.1
			c0.1,0,0.2,0,0.2,0c0.2,0,0.3,0,0.5,0s0.5,0.1,0.7,0.1c0.2,0.1,0.4,0.1,0.5,0.2c0.2,0.1,0.3,0.2,0.4,0.3s0.2,0.3,0.3,0.5
			c0.1,0.2,0.1,0.4,0.2,0.7c0,0.3,0,0.6,0,1v0.1c-0.2,1.7-1.2,3.3-2.1,4.8l-0.1,0.1c-0.1,0.2-0.3,0.4-0.4,0.6
			c-1,1.7-2.2,3.5-3.6,5.6c-0.5,0.7-0.9,1.3-1.3,1.8c-0.3,0.4-0.7,0.9-1.1,1.3l-0.1,0.1c-0.1,0.1-0.2,0.2-0.3,0.3v-0.1
			c0-0.1,0-0.2,0-0.3c0-0.2,0-0.3,0-0.5l0,0c-0.1-0.7-0.1-1.4-0.1-2C21.8,60.3,21.8,59.7,21.8,59.1 M22.3,64.1
			c-0.1,0.1-0.2,0.2-0.3,0.2C22.1,64.2,22.2,64.1,22.3,64.1 M21.2,64.1L21.2,64.1V64V64.1 M15.3,102.9c-0.3-1.5-0.5-3.1-0.7-4.5
			C14.8,99.8,15,101.4,15.3,102.9c0,0.1,0,0.2,0.1,0.3C15.3,103.1,15.3,103,15.3,102.9 M17.3,104.8L17.3,104.8L17.3,104.8
			L17.3,104.8 M17.5,104.3L17.5,104.3L17.5,104.3c0.4,0,0.8-0.2,1.2-0.4C18.4,104.2,18,104.3,17.5,104.3 M22.9,92.5
			c0,0.1-0.1,0.2-0.1,0.3C22.8,92.7,22.9,92.6,22.9,92.5c0.1-0.3,0.3-0.6,0.4-0.8C23.2,92,23,92.3,22.9,92.5 M77.8,108.7
			c-0.1-1.5-0.3-2.8-0.5-4.1C77.5,105.8,77.6,107.2,77.8,108.7c0,0.1,0,0.3,0,0.4C77.8,108.9,77.8,108.8,77.8,108.7 M126.2,112
			c-20-0.3-37.5-0.4-44.5-0.5c-1.6,0-2.9-1.3-3.1-2.9c-0.9-11.5-3.9-22.9-19.5-28.7c-3.2-1.2-7.1-1.8-11.6-1.8c-0.9,0-1.9,0-2.9,0.1
			c-5.5,0.3-11.7,2.4-15.4,5.4c-0.5,0.4-4.6,4.2-6.7,8.8c-1.5,3.2-2.8,9.3-2.9,9.8c-0.3,1-1.2,1.7-2.1,1.7c-0.1,0-0.1,0-0.2,0
			c-0.5,0-1-0.1-1.2-1.2c-2.9-16.3-1.2-28.5,5-36.3c0.3-0.4,0.5-0.7,0.7-1.2c0.6-0.1,1-0.6,1.3-0.9l0.1-0.1c0.5-0.5,0.9-1,1.2-1.4
			c0.4-0.5,0.8-1.1,1.3-1.8c1.4-2,2.6-3.9,3.6-5.6c0.1-0.2,0.3-0.5,0.4-0.7c1-1.6,2.1-3.3,2.3-5.3v-0.1c0.1-0.5,0.1-0.9,0-1.2
			c0-0.4-0.1-0.7-0.3-1c-0.1-0.3-0.3-0.6-0.5-0.8s-0.4-0.4-0.7-0.6c-0.1,0-0.2-0.1-0.3-0.1c2.8-0.9,4.1-4.6,4.9-6.8s1.8-4.3,2.7-6.1
			c0.4-0.8,0.8-1.7,1.2-2.5v-0.1c1.3-2.5,2.5-5.1,3.6-7.8c0.6-1.6,1.2-3.2,0.8-4.9c27.9-3.1,44.5-4.1,68.1-4.3c1.9,0,3.7,0,5.4,0
			c20.2,0,41.7,1.1,62.6,8.7c14.2,5.2,27.4,12.8,40.1,20.2c0.1,0,0.1,0.1,0.2,0.1l-3.8,7.4c-2.2-1.3-4.3-2.5-5.8-3.3l0,0
			c-0.9-0.6-16.7-9.8-25.6-13.7c-6.6-2.9-30.4-12.4-58-12.4c-1.4,0-2.7,0-4,0.1l-3,0.1c-19.4,0.7-39.4,1.4-58.8,5.9
			c-1.9,0.4-3.2,1.3-3.9,2.6c-1.2,2.3-0.3,5.6,0.8,8.4c0.4,1,0.7,2,1,3.1c1.1,3.5,2.3,7.2,5.4,9.4c0.2,0.2,0.5,0.3,0.7,0.4
			c3.9,2.3,9.4,2.8,13.9,3.3c0.5,0.1,1,0.1,1.5,0.2c6.8,0.7,13.7,1.1,20.3,1.5c8.4,0.5,17.1,1.1,25.6,2.2
			c0.7,21.6,1.2,46.4-0.4,54.5C126.2,111.8,126.2,111.9,126.2,112 M127.3,57.4c0,1.1,0.1,2.2,0.1,3.3c0.1,3.1,0.2,6.1,0.3,8.9
			c-0.1-2.8-0.2-5.8-0.3-8.9C127.4,59.6,127.3,58.5,127.3,57.4L127.3,57.4z M214.3,105.8c0,0.5-0.1,0.9-0.1,1.3
			C214.2,106.7,214.2,106.3,214.3,105.8c0-0.1,0-0.2,0-0.4C214.3,105.6,214.3,105.7,214.3,105.8 M228.2,81.4
			c0.7-0.4,1.4-0.9,2.2-1.2C229.6,80.6,228.9,81,228.2,81.4 M239.2,77.3c-0.5,0.1-1,0.2-1.5,0.3C238.2,77.5,238.7,77.4,239.2,77.3
			L239.2,77.3L239.2,77.3 M244,76.9c0.2,0,0.4,0,0.6,0l0,0C244.4,76.9,244.2,76.9,244,76.9 M275.2,113.3c-0.2-0.1-0.3-0.3-0.4-0.4
			C274.8,113.1,275,113.2,275.2,113.3c0.1,0.1,0.2,0.1,0.3,0.1C275.3,113.4,275.2,113.4,275.2,113.3 M276.1,113.6
			c-0.1,0-0.1,0-0.2,0c0.1,0,0.2,0,0.4,0C276.2,113.6,276.2,113.6,276.1,113.6 M284.1,103c-0.4,1.2-0.7,2.4-1,3.5
			c-0.7,2.7-1.9,4.3-3.9,5.2c-1.7,0.8-2.6,0.9-3.1,0.9c-0.3,0-0.4-0.1-0.5-0.1c0,0-0.1-0.1-0.1-0.4c0-1.5-0.1-2.8-0.2-4.1
			c-0.1-1.6-0.3-3.1-0.5-4.8c-1.5-9.8-5.5-17.1-12-21.7c-6.1-4.3-13.2-5.2-18.1-5.2c-3.3,0-5.4,0.4-5.5,0.4
			c-21.9,4-24.9,24.8-25.3,28.9c-0.2,1.9-0.2,3.2-0.2,3.2l0,0c0.1,0.7,0.1,1.4,0,2c-0.2,1.8-1.7,3.1-3.5,3.1c-0.1,0-0.2,0-0.4,0
			c-9.5-0.9-49.2-1.6-82.5-2.1c1.2-6.7,1.4-24,0.5-51.4c0-1.1-0.1-2.1-0.1-3.2c33.1,4.7,47.4,6.6,60.7,8.2c0.2,0.2,0.3,0.4,0.5,0.5
			c0.1,0.1,0.2,0.1,0.3,0.2c0.2,0,1.6,0.2,3.5,0.2c0.8,0,1.6,0,2.5-0.1c3.4,0.4,7.1,0.8,12,1.3c0.4,0,0.8,0.1,1.2,0.1
			c1.9,0,3.7-0.5,5.4-1.4l12.6-5.1c1-0.2,1.7-1,1.9-1.9c0.2-1.3-0.4-2.7-1.5-3.5c-2.4-1.6-5.8-3.8-9-5.7l3.7-7.4
			c3,1.8,6.1,3.5,9.2,5.3c3.8,2.1,8.6,4.5,14.1,6.9v0.1c3.1,7.6,10,13.1,14.9,16.6c6.7,4.7,13.3,9.3,20.3,13.4
			c0.1,0.1,0.1,0.1,0.2,0.2c0.6,0.4,2.6,1.6,4.5,2.1c0,0,0,0,0.1,0l0,0c0.7,0.2,1.2,0.3,1.8,0.4C286.9,93.2,285.4,98.4,284.1,103
			 M264.5,66.6c9,1.5,14.8,4.5,18.2,9.5c2.8,4.1,2.4,8.2,2.1,9.8c-1.1-0.4-2.3-0.9-3.7-1.7c0,0-0.1,0-0.1-0.1
			c-1.1-10.6-13.2-12.5-15.7-12.8L264.5,66.6z M265.1,71.8c-0.1,0-0.2-0.1-0.3-0.3C264.9,71.7,265,71.8,265.1,71.8 M285.3,82.3
			c-0.2-1.9-0.8-4.2-2.3-6.4C284.5,78.2,285.1,80.5,285.3,82.3 M283.4,75.7c0.6,0.9,1,1.8,1.4,2.6C284.4,77.4,284,76.5,283.4,75.7
			 M285.3,85.3c0,0.3-0.1,0.6-0.1,0.8C285.2,85.9,285.2,85.6,285.3,85.3 M273.2,80.4c2.1,1.4,4.3,2.7,6.5,4
			C277.5,83.1,275.3,81.8,273.2,80.4 M286.6,86.4c-0.2,0-0.4-0.1-0.6-0.1c0.3-1.6,0.9-6.3-2.3-10.9c-3.7-5.4-9.8-8.6-19.4-10.2
			c-0.1,0-0.1,0-0.2,0c-0.3,0-0.6,0.1-0.8,0.4c-0.2,0.3-0.3,0.6-0.2,0.9l0.8,5.2c0,0,0,0,0,0.1c0.2,0.5,0.6,0.8,1.1,0.9
			c2.2,0.2,12.8,1.8,14.5,10.7c-6.6-3.9-12.8-8.2-19.1-12.7c-4.5-3.2-10.9-8.3-14.1-15.1c0.7,0.3,1.6,0.7,1.7,0.7
			c0.2,0.1,0.4,0.2,0.6,0.2c0.1,0.1,0.3,0.1,0.4,0.1c3.1,1.3,6.2,2.6,9.2,3.9c2.1,0.9,4.4,1.8,6.6,2.8c1.1,0.4,2.1,0.9,3.2,1.3
			c3.4,1.4,6.9,2.8,10.1,4.7c1.7,1,3.2,2.2,4.4,3.4c1.8,1.9,3,4,3.8,6.5C286.7,81,287.2,83.7,286.6,86.4 M264.3,65.7h-0.1
			C264.2,65.7,264.2,65.7,264.3,65.7C264.2,65.7,264.2,65.7,264.3,65.7 M263.6,66.4c0-0.2,0-0.4,0.1-0.5
			C263.6,66,263.6,66.2,263.6,66.4 M286.6,79.1c0.3,1,0.6,2.4,0.7,3.8C287.2,81.5,286.9,80.1,286.6,79.1 M287.6,86.8L287.6,86.8
			c0.1-0.2,0.1-0.5,0.1-0.7C287.7,86.4,287.6,86.6,287.6,86.8"/>
		<path class="st0" d="M34.7,60.5L34.7,60.5c-4.2,0.1-7.5,3.4-7.4,7.5c0,2,0.8,3.8,2.3,5.2c1.4,1.3,3.2,2.1,5.2,2.1h0.1
			c2,0,3.8-0.8,5.2-2.2c1.4-1.4,2.1-3.3,2.1-5.2c0-2-0.8-3.8-2.3-5.2C38.5,61.3,36.7,60.5,34.7,60.5 M34.7,60.9L34.7,60.9
			c0.2,0,0.3,0,0.4,0C34.9,61,34.8,60.9,34.7,60.9c-1.7,0-3.2,0.6-4.4,1.6C31.4,61.6,33,61,34.7,60.9 M29.9,72.9
			c0.8,0.8,1.8,1.4,2.9,1.7C31.7,74.2,30.7,73.7,29.9,72.9 M32.3,73.9c0.8,0.3,1.6,0.5,2.5,0.5C33.9,74.4,33,74.2,32.3,73.9
			 M36.8,74.1c1.2-0.4,2.2-1.1,3-2C39,73,38,73.7,36.8,74.1 M39.2,72.1c-1.2,1.2-2.7,1.8-4.3,1.9h-0.1c-1.6,0-3.1-0.6-4.3-1.7
			c-1.2-1.1-1.8-2.7-1.9-4.3c0-1.6,0.6-3.2,1.7-4.3c1.1-1.2,2.7-1.8,4.3-1.9h0.1c1.6,0,3.1,0.6,4.3,1.7c1.2,1.1,1.8,2.7,1.9,4.3
			C40.9,69.4,40.3,71,39.2,72.1"/>
		<path class="st0" d="M148.2,64.2c-1.5-0.7-3.4-1.1-5.5-1.1c-0.1,0-0.2,0-0.3,0c-4.8,0.1-8.4,2-8.3,4.4c0,1.2,1,2.4,2.7,3.1
			c1.5,0.7,3.4,1.1,5.5,1.1c0.1,0,0.2,0,0.3,0c4.8-0.1,8.4-2,8.3-4.4C150.8,66.1,149.9,65,148.2,64.2 M142.6,63.6c0.1,0,0.2,0,0.3,0
			c-0.2,0-0.4,0-0.5,0C142.5,63.6,142.6,63.6,142.6,63.6 M142.5,70.5c-0.1,0-0.2,0-0.3,0c-1.9,0-3.6-0.3-5-0.9
			c-1.2-0.6-1.9-1.3-1.9-2c0-1.5,2.8-3.1,7.1-3.1c0.1,0,0.1,0,0.2,0c1.9,0,3.7,0.3,5,0.9c1.2,0.6,1.9,1.3,1.9,2
			C149.6,68.8,146.7,70.5,142.5,70.5"/>
		<g class="st6">
			<g>
				<g>
					<g>
						<path class="st19" d="M172,48.1l-16.3-17.6c-1.3-1.4-2.3,2.1-1,3.5c5.4,5.9,10.8,11.7,16.3,17.6C172.3,53,173.3,49.5,172,48.1
							"/>
					</g>
				</g>
			</g>
		</g>
		<g class="st6">
			<g>
				<g>
					<g>
						<path class="st19" d="M158.1,47.6c-3.2-3.9-6.4-7.8-9.7-11.8c-1.3-1.6-2.6,1.6-1.3,3.2c3.2,3.9,6.4,7.8,9.7,11.8
							C158.1,52.4,159.4,49.2,158.1,47.6"/>
					</g>
				</g>
			</g>
		</g>
		<g class="st6">
			<g>
				<g>
					<g>
						<path class="st19" d="M100.6,44.6c-3.8-4.1-7.5-8.1-11.3-12.2c-0.9-1-1.6,1.4-0.7,2.4c3.8,4.1,7.5,8.1,11.3,12.2
							C100.8,48,101.5,45.6,100.6,44.6"/>
					</g>
				</g>
			</g>
		</g>
		<g class="st6">
			<g>
				<g>
					<g>
						<path class="st19" d="M90.9,44.2c-2.2-2.7-4.5-5.5-6.7-8.2c-0.9-1.1-1.8,1.1-0.9,2.2c2.2,2.7,4.5,5.5,6.7,8.2
							C90.9,47.6,91.8,45.3,90.9,44.2"/>
					</g>
				</g>
			</g>
		</g>
	</g>
	<rect y="133.7" class="st0" width="356.1" height="2.2"/>
</g>
<g>
	<g>
		<g>
			<g>
				<path class="st20" d="M153.4411,96.5221l0.4737-0.5561c0.4326,0.3708,0.8445,0.5767,1.4006,0.5767
					c0.4738,0,0.7827-0.2266,0.7827-0.5561v-0.0206c0-0.309-0.1648-0.4943-0.9887-0.6797
					c-0.9475-0.2266-1.4624-0.4943-1.4624-1.3182v-0.0206c0-0.7621,0.6385-1.2771,1.5036-1.2771
					c0.6385,0,1.1535,0.1854,1.6066,0.5561l-0.412,0.5767c-0.3913-0.309-0.8033-0.4531-1.1947-0.4531
					c-0.4532,0-0.7209,0.2266-0.7209,0.5149v0.0206c0,0.3502,0.206,0.4943,1.0505,0.7003c0.9269,0.2266,1.4212,0.5767,1.4212,1.2976
					v0.0206c0,0.8239-0.6385,1.3182-1.5654,1.3182C154.6152,97.243,153.9766,96.9958,153.4411,96.5221z M158.2198,92.7527h3.275
					v0.7003h-2.5129v1.1535h2.2245v0.7003h-2.2245v1.1741h2.5335v0.7003h-3.2956
					C158.2198,97.1606,158.2198,92.7527,158.2198,92.7527z M162.607,94.9773L162.607,94.9773c0-1.2359,0.9475-2.3069,2.2863-2.3069
					c0.7621,0,1.2359,0.2266,1.7096,0.5973l-0.4943,0.5767c-0.3502-0.2884-0.6797-0.4737-1.2359-0.4737
					c-0.8239,0-1.4418,0.7003-1.4418,1.5654v0.0206c0,0.9063,0.5973,1.5654,1.5036,1.5654c0.4119,0,0.8033-0.1236,1.0711-0.3296
					v-0.8239h-1.1535v-0.6797h1.895v1.8744c-0.4325,0.3708-1.0505,0.7003-1.8332,0.7003
					C163.5133,97.2636,162.607,96.2543,162.607,94.9773z M168.1684,95.3068v-2.5541h0.7621v2.5129
					c0,0.8239,0.4326,1.2564,1.1123,1.2564c0.7003,0,1.1123-0.4119,1.1123-1.2359v-2.5335h0.7621v2.4923
					c0,1.3182-0.7415,1.9774-1.895,1.9774C168.8893,97.243,168.1684,96.5839,168.1684,95.3068z M173.5238,92.7527h1.9774
					c0.5561,0,0.9887,0.1648,1.277,0.4325c0.2266,0.2266,0.3708,0.5767,0.3708,0.9681v0.0206c0,0.7209-0.4325,1.1741-1.0505,1.3388
					l1.1947,1.6684h-0.9269l-1.0917-1.5448h-0.9681v1.5448h-0.8033L173.5238,92.7527L173.5238,92.7527z M175.4187,94.9361
					c0.5562,0,0.9063-0.2884,0.9063-0.7415l0,0c0-0.4737-0.3501-0.7415-0.9063-0.7415h-1.1329v1.483H175.4187L175.4187,94.9361z
					 M178.2612,94.9773L178.2612,94.9773c0-1.2565,0.9681-2.3069,2.3069-2.3069c1.3388,0,2.3069,1.0299,2.3069,2.2657v0.0206
					c0,1.2359-0.9681,2.2863-2.3069,2.2863C179.1881,97.2636,178.2612,96.2131,178.2612,94.9773z M182.0512,94.9773
					L182.0512,94.9773c0-0.8651-0.6385-1.586-1.5036-1.586c-0.8857,0-1.5036,0.7003-1.5036,1.5654v0.0206
					c0,0.8651,0.6385,1.5654,1.5036,1.5654C181.4332,96.5221,182.0512,95.8424,182.0512,94.9773z M183.8638,96.5221l0.4737-0.5561
					c0.4326,0.3708,0.8445,0.5767,1.4006,0.5767c0.4738,0,0.7827-0.2266,0.7827-0.5561v-0.0206c0-0.309-0.1648-0.4943-0.9887-0.6797
					c-0.9475-0.2266-1.4624-0.4943-1.4624-1.3182v-0.0206c0-0.7621,0.6385-1.2771,1.5036-1.2771
					c0.6385,0,1.1535,0.1854,1.6066,0.5561l-0.412,0.5767c-0.3913-0.309-0.8033-0.4531-1.1947-0.4531
					c-0.4532,0-0.7209,0.2266-0.7209,0.5149v0.0206c0,0.3502,0.206,0.4943,1.0505,0.7003c0.9269,0.2266,1.4212,0.5767,1.4212,1.2976
					v0.0206c0,0.8239-0.6385,1.3182-1.5654,1.3182C185.0378,97.243,184.3993,96.9958,183.8638,96.5221z"/>
				<path class="st10" d="M168.6215,89.7249h4.964c5.4172,0,8.1154-2.8219,8.1154-6.7766v-0.0412
					c0-3.9547-2.6571-6.5706-7.9713-6.5706h-5.1288L168.6215,89.7249L168.6215,89.7249z M173.0912,86.0791v-6.0557h0.7415
					c2.0392,0,3.378,0.9063,3.378,3.0072v0.0412c0,2.101-1.3183,3.0072-3.378,3.0072H173.0912z"/>
				<path id="path34_8_" class="st10" d="M182.8339,89.7249h4.4491V76.357h-4.4491V89.7249z"/>
				<path id="path34_7_" class="st21" d="M157.9108,85.2758h4.4491v-4.4491h-4.4491V85.2758z"/>
				<path id="path34_3_" class="st10" d="M162.3805,89.7249h4.4491V76.357h-4.4491
					C162.3805,76.357,162.3805,89.7249,162.3805,89.7249z"/>
			</g>
			<path id="path34_1_" class="st10" d="M153.4411,89.7249h4.4491V76.357h-4.4491V89.7249z"/>
		</g>
	</g>
</g>
</svg>
