<?xml version="1.0" encoding="utf-8"?>
<!-- Generator: Adobe Illustrator 25.2.3, SVG Export Plug-In . SVG Version: 6.00 Build 0)  -->
<svg version="1.1" id="Capa_1" xmlns="http://www.w3.org/2000/svg" xmlns:xlink="http://www.w3.org/1999/xlink" x="0px" y="0px"
	 viewBox="0 0 279 61" enable-background="new 0 0 279 61" xml:space="preserve">
<path fill="#026830" d="M268.3301,61H10.6699C4.7771,61,0,56.2229,0,50.3301V10.6699C0,4.7771,4.7771,0,10.6699,0l257.6602,0
	C274.2229,0,279,4.7771,279,10.6699v39.6602C279,56.2229,274.2229,61,268.3301,61z"/>
<g>
	<path fill="#FFFFFF" d="M63.1011,37.2275c-0.9199,0-1.6826-0.1699-2.2876-0.5098s-1.0625-0.8149-1.3726-1.4253
		c-0.3101-0.6099-0.48-1.3198-0.5098-2.1299c-0.0103-0.4097-0.0151-0.8496-0.0151-1.3198s0.0049-0.9199,0.0151-1.3501
		c0.0298-0.8101,0.1997-1.52,0.5098-2.1299s0.7676-1.085,1.3726-1.4253c0.605-0.3398,1.3677-0.5098,2.2876-0.5098
		c0.6899,0,1.2949,0.0952,1.8149,0.2847c0.52,0.1904,0.9526,0.4453,1.2974,0.7651c0.3452,0.3203,0.6079,0.6777,0.7876,1.0728
		c0.1802,0.395,0.2798,0.8022,0.3003,1.2222c0.0098,0.0903-0.0176,0.165-0.0825,0.2251c-0.0654,0.0601-0.1426,0.0898-0.2324,0.0898
		h-0.8252c-0.0898,0-0.1675-0.0244-0.2324-0.0747c-0.0654-0.0498-0.1128-0.1401-0.1426-0.27
		c-0.1704-0.7803-0.4873-1.3149-0.9526-1.605c-0.4648-0.29-1.0474-0.4351-1.7476-0.4351c-0.7998,0-1.4351,0.2275-1.9048,0.6826
		c-0.4702,0.4551-0.7251,1.1826-0.7651,2.1826c-0.0298,0.8198-0.0298,1.6597,0,2.5195c0.04,1.0005,0.2949,1.728,0.7651,2.1826
		c0.4697,0.4551,1.105,0.6826,1.9048,0.6826c0.7002,0,1.2827-0.145,1.7476-0.4351c0.4653-0.29,0.7822-0.8247,0.9526-1.605
		c0.0298-0.1299,0.0771-0.2197,0.1426-0.27c0.0649-0.0498,0.1426-0.0747,0.2324-0.0747h0.8252c0.0898,0,0.167,0.0298,0.2324,0.0898
		c0.0649,0.0601,0.0923,0.1348,0.0825,0.2251c-0.0205,0.4199-0.1201,0.8276-0.3003,1.2222
		c-0.1797,0.3955-0.4424,0.7529-0.7876,1.0728c-0.3447,0.3198-0.7773,0.5752-1.2974,0.7651
		C64.396,37.1323,63.791,37.2275,63.1011,37.2275z"/>
	<path fill="#FFFFFF" d="M73.0757,37.2275c-0.8501,0-1.5801-0.1475-2.1899-0.4424s-1.0801-0.75-1.4097-1.3652
		c-0.3301-0.6147-0.5151-1.3872-0.5552-2.3174c-0.0103-0.4399-0.0151-0.8623-0.0151-1.2676c0-0.4048,0.0049-0.8271,0.0151-1.2671
		c0.04-0.9199,0.2324-1.6875,0.5776-2.3027c0.3447-0.6152,0.8247-1.0747,1.4399-1.3799c0.6147-0.3052,1.3271-0.4575,2.1372-0.4575
		c0.8198,0,1.5376,0.1523,2.1528,0.4575c0.6147,0.3052,1.0972,0.7646,1.4473,1.3799s0.54,1.3828,0.5703,2.3027
		c0.0195,0.4399,0.0298,0.8623,0.0298,1.2671c0,0.4053-0.0103,0.8276-0.0298,1.2676c-0.0303,0.9302-0.2129,1.7026-0.5479,2.3174
		c-0.335,0.6152-0.8076,1.0703-1.4175,1.3652S73.9355,37.2275,73.0757,37.2275z M73.0757,35.9526c0.77,0,1.3975-0.23,1.8828-0.6899
		c0.4849-0.46,0.7471-1.2051,0.7876-2.2349c0.0195-0.4502,0.0298-0.8525,0.0298-1.2075s-0.0103-0.7524-0.0298-1.1929
		c-0.0205-0.6899-0.1479-1.2495-0.3828-1.6797s-0.5474-0.7451-0.9375-0.9453c-0.3901-0.1997-0.8398-0.2998-1.3501-0.2998
		c-0.4897,0-0.9297,0.1001-1.3198,0.2998c-0.3901,0.2002-0.7026,0.5151-0.9375,0.9453s-0.3677,0.9897-0.3975,1.6797
		c-0.0103,0.4404-0.0151,0.8379-0.0151,1.1929s0.0049,0.7573,0.0151,1.2075c0.04,1.0298,0.3047,1.7749,0.7949,2.2349
		C71.7055,35.7227,72.3257,35.9526,73.0757,35.9526z"/>
	<path fill="#FFFFFF" d="M79.8105,37.0776c-0.1001,0-0.1826-0.0322-0.2476-0.0977c-0.0649-0.0649-0.0972-0.1475-0.0972-0.2476
		v-9.7949c0-0.1099,0.0322-0.1973,0.0972-0.2622s0.1475-0.0977,0.2476-0.0977h0.75c0.1201,0,0.21,0.0298,0.27,0.0898
		s0.0952,0.1104,0.105,0.1504l3.1802,6.0596l3.1948-6.0596c0.02-0.04,0.0576-0.0903,0.1128-0.1504
		c0.0547-0.0601,0.1421-0.0898,0.2622-0.0898h0.7349c0.1104,0,0.1978,0.0327,0.2627,0.0977s0.0977,0.1523,0.0977,0.2622v9.7949
		c0,0.1001-0.0327,0.1826-0.0977,0.2476c-0.0649,0.0654-0.1523,0.0977-0.2627,0.0977h-0.7349c-0.1001,0-0.1826-0.0322-0.2476-0.0977
		c-0.0649-0.0649-0.0972-0.1475-0.0972-0.2476v-7.3799l-2.5054,4.8901c-0.04,0.1001-0.1001,0.1777-0.1797,0.2324
		c-0.0801,0.0552-0.1802,0.0825-0.3003,0.0825h-0.4648c-0.1299,0-0.2324-0.0273-0.3076-0.0825
		c-0.0747-0.0547-0.1372-0.1323-0.1875-0.2324l-2.5049-4.8901v7.3799c0,0.1001-0.0327,0.1826-0.0977,0.2476
		c-0.0649,0.0654-0.1475,0.0977-0.2476,0.0977H79.8105z"/>
	<path fill="#FFFFFF" d="M91.7202,37.0776c-0.1099,0-0.1948-0.0322-0.2549-0.0977c-0.0601-0.0649-0.0898-0.1475-0.0898-0.2476
		v-9.7949c0-0.1099,0.0298-0.1973,0.0898-0.2622s0.145-0.0977,0.2549-0.0977h3.8101c0.7397,0,1.3823,0.1201,1.9277,0.3599
		c0.5449,0.2402,0.9673,0.5977,1.2671,1.0728c0.3003,0.4751,0.4502,1.0674,0.4502,1.7773s-0.1499,1.3003-0.4502,1.77
		c-0.2998,0.4702-0.7222,0.8252-1.2671,1.0649c-0.5454,0.2402-1.188,0.3599-1.9277,0.3599h-2.6548v3.75
		c0,0.1001-0.0327,0.1826-0.0977,0.2476c-0.0649,0.0654-0.1528,0.0977-0.2627,0.0977H91.7202z M92.8603,31.7227h2.5947
		c0.7402,0,1.2949-0.165,1.665-0.4951s0.5552-0.8101,0.5552-1.4399c0-0.6201-0.1802-1.1001-0.54-1.4399
		s-0.9199-0.5103-1.6802-0.5103h-2.5947V31.7227z"/>
	<path fill="#FFFFFF" d="M101.3501,37.0776c-0.1099,0-0.1948-0.0322-0.2549-0.0977c-0.0601-0.0649-0.0898-0.1475-0.0898-0.2476
		v-9.7949c0-0.1099,0.0298-0.1973,0.0898-0.2622s0.145-0.0977,0.2549-0.0977h3.6602c1.1299,0,2.0249,0.2651,2.6851,0.7949
		c0.6597,0.5303,0.9897,1.3149,0.9897,2.355c0,0.77-0.1924,1.3975-0.5771,1.8828c-0.3853,0.4849-0.9077,0.8223-1.5679,1.0122
		l2.3101,3.9902c0.0303,0.0601,0.0449,0.1147,0.0449,0.165c0,0.0801-0.0322,0.1499-0.0972,0.21
		c-0.0654,0.0601-0.1377,0.0898-0.2178,0.0898h-0.7197c-0.1704,0-0.2954-0.0449-0.375-0.1348
		c-0.0801-0.0903-0.1504-0.1802-0.21-0.27l-2.1753-3.8101h-2.625v3.8696c0,0.1001-0.0327,0.1826-0.0972,0.2476
		c-0.0654,0.0654-0.1528,0.0977-0.2627,0.0977H101.3501z M102.4751,31.5874h2.4751c0.75,0,1.3101-0.1572,1.6802-0.4722
		c0.3696-0.3149,0.5547-0.7822,0.5547-1.4028c0-0.6094-0.1826-1.0747-0.5474-1.3945c-0.3652-0.3203-0.9277-0.4805-1.6875-0.4805
		h-2.4751V31.5874z"/>
	<path fill="#FFFFFF" d="M110.1255,37.0776c-0.0801,0-0.1499-0.0298-0.21-0.0898s-0.0903-0.1299-0.0903-0.21
		c0-0.0503,0.0049-0.105,0.0151-0.165l3.7202-9.7051c0.0396-0.1001,0.0947-0.1802,0.165-0.2402
		c0.0698-0.0601,0.1748-0.0898,0.3149-0.0898h1.02c0.1299,0,0.2324,0.0298,0.3071,0.0898c0.0752,0.0601,0.1328,0.1401,0.1729,0.2402
		l3.7051,9.7051c0.0195,0.0601,0.0298,0.1147,0.0298,0.165c0,0.0801-0.0298,0.1499-0.0898,0.21s-0.1304,0.0898-0.21,0.0898h-0.7651
		c-0.1201,0-0.2075-0.0298-0.2627-0.0898s-0.0923-0.1152-0.1123-0.165l-0.8252-2.1299h-4.9199l-0.8247,2.1299
		c-0.0103,0.0498-0.0454,0.105-0.1055,0.165c-0.0596,0.0601-0.1499,0.0898-0.2695,0.0898H110.1255z M112.5254,33.4028h4.0498
		l-2.0249-5.3252L112.5254,33.4028z"/>
	<path fill="#FFFFFF" d="M124.5102,37.0776c-0.1099,0-0.1948-0.0322-0.2549-0.0977c-0.0601-0.0649-0.0898-0.1475-0.0898-0.2476
		v-9.7949c0-0.1099,0.0298-0.1973,0.0898-0.2622s0.145-0.0977,0.2549-0.0977h3.8101c0.7397,0,1.3823,0.1201,1.9277,0.3599
		c0.5449,0.2402,0.9673,0.5977,1.2671,1.0728c0.3003,0.4751,0.4502,1.0674,0.4502,1.7773s-0.1499,1.3003-0.4502,1.77
		c-0.2998,0.4702-0.7222,0.8252-1.2671,1.0649c-0.5454,0.2402-1.188,0.3599-1.9277,0.3599h-2.6548v3.75
		c0,0.1001-0.0327,0.1826-0.0977,0.2476c-0.0649,0.0654-0.1528,0.0977-0.2627,0.0977H124.5102z M125.6504,31.7227h2.5947
		c0.7402,0,1.2949-0.165,1.665-0.4951s0.5552-0.8101,0.5552-1.4399c0-0.6201-0.1802-1.1001-0.54-1.4399
		s-0.9199-0.5103-1.6802-0.5103h-2.5947V31.7227z"/>
	<path fill="#FFFFFF" d="M137.56,37.2275c-0.8501,0-1.5801-0.1475-2.1899-0.4424s-1.0801-0.75-1.4097-1.3652
		c-0.3301-0.6147-0.5151-1.3872-0.5552-2.3174c-0.0103-0.4399-0.0151-0.8623-0.0151-1.2676c0-0.4048,0.0049-0.8271,0.0151-1.2671
		c0.04-0.9199,0.2324-1.6875,0.5776-2.3027c0.3447-0.6152,0.8247-1.0747,1.4399-1.3799c0.6147-0.3052,1.3271-0.4575,2.1372-0.4575
		c0.8198,0,1.5376,0.1523,2.1528,0.4575c0.6147,0.3052,1.0972,0.7646,1.4473,1.3799s0.54,1.3828,0.5703,2.3027
		c0.0195,0.4399,0.0298,0.8623,0.0298,1.2671c0,0.4053-0.0103,0.8276-0.0298,1.2676c-0.0303,0.9302-0.2129,1.7026-0.5479,2.3174
		c-0.335,0.6152-0.8076,1.0703-1.4175,1.3652S138.4199,37.2275,137.56,37.2275z M137.56,35.9526c0.77,0,1.3975-0.23,1.8828-0.6899
		c0.4849-0.46,0.7471-1.2051,0.7876-2.2349c0.0195-0.4502,0.0298-0.8525,0.0298-1.2075s-0.0103-0.7524-0.0298-1.1929
		c-0.0205-0.6899-0.1479-1.2495-0.3828-1.6797s-0.5474-0.7451-0.9375-0.9453c-0.3901-0.1997-0.8398-0.2998-1.3501-0.2998
		c-0.4897,0-0.9297,0.1001-1.3198,0.2998c-0.3901,0.2002-0.7026,0.5151-0.9375,0.9453s-0.3677,0.9897-0.3975,1.6797
		c-0.0103,0.4404-0.0151,0.8379-0.0151,1.1929s0.0049,0.7573,0.0151,1.2075c0.04,1.0298,0.3047,1.7749,0.7949,2.2349
		C136.1899,35.7227,136.81,35.9526,137.56,35.9526z"/>
	<path fill="#FFFFFF" d="M144.2959,37.0776c-0.1104,0-0.1953-0.0322-0.2559-0.0977c-0.0596-0.0649-0.0898-0.1475-0.0898-0.2476
		v-9.7949c0-0.1099,0.0303-0.1973,0.0898-0.2622c0.0605-0.0649,0.1455-0.0977,0.2559-0.0977h3.6592
		c1.1299,0,2.0254,0.2651,2.6855,0.7949c0.6602,0.5303,0.9902,1.3149,0.9902,2.355c0,0.77-0.1934,1.3975-0.5781,1.8828
		c-0.3848,0.4849-0.9072,0.8223-1.5674,1.0122l2.3105,3.9902c0.0293,0.0601,0.0449,0.1147,0.0449,0.165
		c0,0.0801-0.0332,0.1499-0.0977,0.21c-0.0654,0.0601-0.1377,0.0898-0.2178,0.0898h-0.7197c-0.1699,0-0.2949-0.0449-0.375-0.1348
		c-0.0801-0.0903-0.1504-0.1802-0.21-0.27l-2.1748-3.8101h-2.625v3.8696c0,0.1001-0.0332,0.1826-0.0977,0.2476
		c-0.0654,0.0654-0.1523,0.0977-0.2627,0.0977H144.2959z M145.4209,31.5874h2.4746c0.75,0,1.3096-0.1572,1.6797-0.4722
		s0.5557-0.7822,0.5557-1.4028c0-0.6094-0.1826-1.0747-0.5479-1.3945c-0.3652-0.3203-0.9277-0.4805-1.6875-0.4805h-2.4746V31.5874z"
		/>
	<path fill="#FFFFFF" d="M159.7158,37.0776c-0.1006,0-0.1826-0.0322-0.248-0.0977c-0.0645-0.0649-0.0977-0.1475-0.0977-0.2476
		v-8.8198h-2.8799c-0.0996,0-0.1826-0.0322-0.2471-0.0977c-0.0654-0.0649-0.0977-0.1475-0.0977-0.2471v-0.6304
		c0-0.1099,0.0322-0.1973,0.0977-0.2622c0.0645-0.0649,0.1475-0.0977,0.2471-0.0977h7.2305c0.1094,0,0.1973,0.0327,0.2627,0.0977
		c0.0645,0.0649,0.0967,0.1523,0.0967,0.2622v0.6304c0,0.0996-0.0322,0.1821-0.0967,0.2471
		c-0.0654,0.0654-0.1533,0.0977-0.2627,0.0977h-2.8652v8.8198c0,0.1001-0.0322,0.1826-0.0977,0.2476
		c-0.0654,0.0654-0.1523,0.0977-0.2627,0.0977H159.7158z"/>
	<path fill="#FFFFFF" d="M166.1054,37.0776c-0.1104,0-0.1953-0.0322-0.2559-0.0977c-0.0596-0.0649-0.0898-0.1475-0.0898-0.2476
		v-9.7949c0-0.1099,0.0303-0.1973,0.0898-0.2622c0.0605-0.0649,0.1455-0.0977,0.2559-0.0977h6.1943
		c0.1104,0,0.1953,0.0327,0.2549,0.0977c0.0605,0.0649,0.0908,0.1523,0.0908,0.2622v0.5703c0,0.1099-0.0303,0.1948-0.0908,0.2549
		c-0.0596,0.0601-0.1445,0.0898-0.2549,0.0898h-5.0996v3.2852h4.7695c0.1104,0,0.1953,0.0327,0.2549,0.0977
		c0.0605,0.0649,0.0908,0.1523,0.0908,0.2622v0.5552c0,0.1001-0.0303,0.1826-0.0908,0.2476
		c-0.0596,0.0649-0.1445,0.0972-0.2549,0.0972h-4.7695v3.4053h5.2197c0.1104,0,0.1953,0.0298,0.2549,0.0898
		c0.0605,0.0601,0.0898,0.145,0.0898,0.2549v0.585c0,0.1001-0.0293,0.1826-0.0898,0.2476
		c-0.0596,0.0654-0.1445,0.0977-0.2549,0.0977H166.1054z"/>
	<path fill="#FFFFFF" d="M175.1953,37.0776c-0.1104,0-0.1953-0.0322-0.2559-0.0977c-0.0596-0.0649-0.0898-0.1475-0.0898-0.2476
		v-9.8096c0-0.1001,0.0303-0.1826,0.0898-0.2476c0.0605-0.0649,0.1455-0.0977,0.2559-0.0977h0.7949
		c0.0996,0,0.1797,0.0327,0.2393,0.0977c0.0605,0.0649,0.0908,0.1475,0.0908,0.2476v8.8496h4.9941
		c0.1104,0,0.1953,0.0327,0.2559,0.0977c0.0596,0.0649,0.0898,0.1528,0.0898,0.2627v0.5996c0,0.1001-0.0303,0.1826-0.0898,0.2476
		c-0.0605,0.0654-0.1455,0.0977-0.2559,0.0977H175.1953z"/>
	<path fill="#FFFFFF" d="M183.6396,37.0776c-0.1104,0-0.1953-0.0322-0.2559-0.0977c-0.0596-0.0649-0.0898-0.1475-0.0898-0.2476
		v-9.7949c0-0.1099,0.0303-0.1973,0.0898-0.2622c0.0605-0.0649,0.1455-0.0977,0.2559-0.0977h6.1943
		c0.1104,0,0.1953,0.0327,0.2549,0.0977c0.0605,0.0649,0.0908,0.1523,0.0908,0.2622v0.5703c0,0.1099-0.0303,0.1948-0.0908,0.2549
		c-0.0596,0.0601-0.1445,0.0898-0.2549,0.0898h-5.0996v3.2852h4.7695c0.1104,0,0.1953,0.0327,0.2549,0.0977
		c0.0605,0.0649,0.0908,0.1523,0.0908,0.2622v0.5552c0,0.1001-0.0303,0.1826-0.0908,0.2476
		c-0.0596,0.0649-0.1445,0.0972-0.2549,0.0972h-4.7695v3.4053h5.2197c0.1104,0,0.1953,0.0298,0.2549,0.0898
		c0.0605,0.0601,0.0898,0.145,0.0898,0.2549v0.585c0,0.1001-0.0293,0.1826-0.0898,0.2476
		c-0.0596,0.0654-0.1445,0.0977-0.2549,0.0977H183.6396z M186.1289,25.8276c-0.1602,0-0.2393-0.0801-0.2393-0.2402
		c0-0.0796,0.0244-0.1445,0.0742-0.1948l1.125-1.3501c0.0908-0.1099,0.1699-0.1821,0.2402-0.2173s0.1748-0.0527,0.3154-0.0527
		h1.1094c0.1904,0,0.2852,0.0952,0.2852,0.2852c0,0.0703-0.0244,0.1299-0.0752,0.1802l-1.7393,1.4248
		c-0.0801,0.0703-0.1553,0.1152-0.2256,0.1353s-0.1602,0.0298-0.2695,0.0298H186.1289z"/>
	<path fill="#FFFFFF" d="M192.7295,37.0776c-0.1104,0-0.1953-0.0322-0.2559-0.0977c-0.0596-0.0649-0.0898-0.1475-0.0898-0.2476
		v-9.7949c0-0.1099,0.0303-0.1973,0.0898-0.2622c0.0605-0.0649,0.1455-0.0977,0.2559-0.0977h6.1191
		c0.1104,0,0.1953,0.0327,0.2559,0.0977c0.0596,0.0649,0.0898,0.1523,0.0898,0.2622v0.6001c0,0.1104-0.0303,0.1948-0.0898,0.2549
		c-0.0605,0.0601-0.1455,0.0903-0.2559,0.0903h-5.0098v3.4946h4.71c0.1104,0,0.1953,0.0327,0.2549,0.0977
		c0.0605,0.0654,0.0908,0.1528,0.0908,0.2627v0.5996c0,0.1001-0.0303,0.1826-0.0908,0.2476
		c-0.0596,0.0654-0.1445,0.0977-0.2549,0.0977h-4.71v4.0498c0,0.1001-0.0322,0.1826-0.0977,0.2476
		c-0.0645,0.0654-0.1523,0.0977-0.2617,0.0977H192.7295z"/>
	<path fill="#FFFFFF" d="M204.834,37.2275c-0.8506,0-1.5801-0.1475-2.1904-0.4424s-1.0801-0.75-1.4102-1.3652
		c-0.3301-0.6147-0.5146-1.3872-0.5547-2.3174c-0.0098-0.4399-0.0146-0.8623-0.0146-1.2676c0-0.4048,0.0049-0.8271,0.0146-1.2671
		c0.04-0.9199,0.2324-1.6875,0.5771-2.3027c0.3457-0.6152,0.8252-1.0747,1.4404-1.3799s1.3271-0.4575,2.1377-0.4575
		c0.8193,0,1.5371,0.1523,2.1523,0.4575s1.0977,0.7646,1.4473,1.3799s0.54,1.3828,0.5703,2.3027
		c0.0195,0.4399,0.0293,0.8623,0.0293,1.2671c0,0.4053-0.0098,0.8276-0.0293,1.2676c-0.0303,0.9302-0.2129,1.7026-0.5479,2.3174
		c-0.335,0.6152-0.8076,1.0703-1.417,1.3652C206.4287,37.0801,205.6933,37.2275,204.834,37.2275z M204.834,35.9526
		c0.7695,0,1.3975-0.23,1.8818-0.6899c0.4854-0.46,0.748-1.2051,0.7881-2.2349c0.0195-0.4502,0.0293-0.8525,0.0293-1.2075
		s-0.0098-0.7524-0.0293-1.1929c-0.0205-0.6899-0.1475-1.2495-0.3828-1.6797s-0.5479-0.7451-0.9375-0.9453
		c-0.3896-0.1997-0.8398-0.2998-1.3496-0.2998c-0.4902,0-0.9307,0.1001-1.3203,0.2998c-0.3896,0.2002-0.7031,0.5151-0.9375,0.9453
		c-0.2354,0.4302-0.3672,0.9897-0.3975,1.6797c-0.0098,0.4404-0.0146,0.8379-0.0146,1.1929s0.0049,0.7573,0.0146,1.2075
		c0.04,1.0298,0.3047,1.7749,0.7949,2.2349S204.084,35.9526,204.834,35.9526z"/>
	<path fill="#FFFFFF" d="M211.5693,37.0776c-0.1104,0-0.1953-0.0322-0.2559-0.0977c-0.0596-0.0649-0.0898-0.1475-0.0898-0.2476
		v-9.7949c0-0.1099,0.0303-0.1973,0.0898-0.2622c0.0605-0.0649,0.1455-0.0977,0.2559-0.0977h0.6895
		c0.1201,0,0.21,0.0278,0.2705,0.0825c0.0596,0.0552,0.0947,0.0977,0.1045,0.1274l4.9805,7.6499v-7.5
		c0-0.1099,0.0293-0.1973,0.0898-0.2622c0.0596-0.0649,0.1445-0.0977,0.2549-0.0977h0.7197c0.1104,0,0.1973,0.0327,0.2627,0.0977
		s0.0977,0.1523,0.0977,0.2622v9.7803c0,0.1001-0.0322,0.1851-0.0977,0.2549s-0.1475,0.105-0.2471,0.105h-0.7207
		c-0.1094,0-0.1924-0.0298-0.2471-0.0898c-0.0557-0.0601-0.0928-0.1001-0.1123-0.1201l-4.9648-7.5752v7.4399
		c0,0.1001-0.0332,0.1826-0.0977,0.2476c-0.0654,0.0654-0.1533,0.0977-0.2627,0.0977H211.5693z"/>
	<path fill="#FFFFFF" d="M225.3994,37.2275c-0.8506,0-1.5801-0.1475-2.1904-0.4424s-1.0801-0.75-1.4102-1.3652
		c-0.3301-0.6147-0.5146-1.3872-0.5547-2.3174c-0.0098-0.4399-0.0146-0.8623-0.0146-1.2676c0-0.4048,0.0049-0.8271,0.0146-1.2671
		c0.04-0.9199,0.2324-1.6875,0.5771-2.3027c0.3457-0.6152,0.8252-1.0747,1.4404-1.3799s1.3271-0.4575,2.1377-0.4575
		c0.8193,0,1.5371,0.1523,2.1523,0.4575s1.0977,0.7646,1.4473,1.3799s0.54,1.3828,0.5703,2.3027
		c0.0195,0.4399,0.0293,0.8623,0.0293,1.2671c0,0.4053-0.0098,0.8276-0.0293,1.2676c-0.0303,0.9302-0.2129,1.7026-0.5479,2.3174
		c-0.335,0.6152-0.8076,1.0703-1.417,1.3652C226.9941,37.0801,226.2588,37.2275,225.3994,37.2275z M225.3994,35.9526
		c0.7695,0,1.3975-0.23,1.8818-0.6899c0.4854-0.46,0.748-1.2051,0.7881-2.2349c0.0195-0.4502,0.0293-0.8525,0.0293-1.2075
		s-0.0098-0.7524-0.0293-1.1929c-0.0205-0.6899-0.1475-1.2495-0.3828-1.6797s-0.5479-0.7451-0.9375-0.9453
		c-0.3896-0.1997-0.8398-0.2998-1.3496-0.2998c-0.4902,0-0.9307,0.1001-1.3203,0.2998c-0.3896,0.2002-0.7031,0.5151-0.9375,0.9453
		c-0.2354,0.4302-0.3672,0.9897-0.3975,1.6797c-0.0098,0.4404-0.0146,0.8379-0.0146,1.1929s0.0049,0.7573,0.0146,1.2075
		c0.04,1.0298,0.3047,1.7749,0.7949,2.2349S224.6494,35.9526,225.3994,35.9526z"/>
</g>
<g>
	<path fill="#FFFFFF" d="M252.703,29.773l-9.1505-9.1426c-0.4013-0.4013-1.0498-0.4013-1.4513,0
		c-0.4013,0.3989-0.4013,1.0474,0,1.4487l8.4196,8.4196l-8.4196,8.4196c-0.4013,0.4013-0.4013,1.0498,0,1.4514
		c0.4013,0.4016,1.055,0.4013,1.4563,0l9.1453-9.1453C253.099,30.8304,253.099,30.1693,252.703,29.773z"/>
</g>
<g>
	<path fill="#FFFFFF" d="M33.5,17.5c-7.1797,0-13,5.8203-13,13s5.8203,13,13,13s13-5.8203,13-13S40.6797,17.5,33.5,17.5z
		 M39.1854,35.1591c-0.0616,0.2678-0.126,0.4787-0.1939,0.6324c-0.1293,0.308-0.5047,0.6343-1.1263,0.9789
		c-0.5786,0.314-1.1512,0.471-1.7175,0.471c-0.1661,0-0.3277-0.011-0.4848-0.0322c-0.157-0.0217-0.3338-0.0602-0.531-0.1157
		c-0.1968-0.0555-0.3432-0.1002-0.4385-0.134c-0.0954-0.0339-0.2662-0.097-0.5125-0.1893
		c-0.2462-0.0926-0.3969-0.1479-0.4523-0.1663c-0.6032-0.2156-1.142-0.4711-1.616-0.7665c-0.788-0.4863-1.6021-1.1497-2.4424-1.9899
		c-0.8403-0.8403-1.5037-1.6545-1.9897-2.4425c-0.2955-0.474-0.551-1.0126-0.7664-1.616c-0.0184-0.0554-0.0739-0.2062-0.1661-0.4524
		c-0.0923-0.2463-0.1555-0.4171-0.1893-0.5125c-0.0338-0.0953-0.0784-0.2416-0.1338-0.4386c-0.0555-0.197-0.094-0.374-0.1155-0.531
		c-0.0215-0.1571-0.0323-0.3187-0.0323-0.4848c0-0.5662,0.157-1.1389,0.4709-1.7174c0.3447-0.6216,0.671-0.9971,0.9788-1.1263
		c0.1539-0.0679,0.3647-0.1324,0.6326-0.1939c0.2678-0.0617,0.4847-0.0924,0.651-0.0924c0.0861,0,0.1508,0.0093,0.1939,0.0278
		c0.1108,0.0367,0.274,0.2708,0.4893,0.7016c0.0678,0.117,0.16,0.2833,0.277,0.4986c0.117,0.2155,0.2247,0.4109,0.3232,0.5864
		c0.0986,0.1754,0.194,0.3401,0.2862,0.4938c0.0185,0.0248,0.0723,0.1016,0.1617,0.231c0.0893,0.1293,0.1555,0.2385,0.1985,0.3279
		c0.043,0.0892,0.0646,0.1771,0.0646,0.2632c0,0.1231-0.0877,0.2769-0.2631,0.4616c-0.1755,0.1846-0.3662,0.3539-0.5725,0.5078
		c-0.2062,0.1538-0.397,0.317-0.5724,0.4893c-0.1755,0.1724-0.2632,0.314-0.2632,0.4248c0,0.0555,0.0154,0.1246,0.0461,0.2078
		c0.0307,0.0831,0.0569,0.1462,0.0784,0.1893c0.0215,0.0432,0.0647,0.117,0.1293,0.2217c0.0646,0.1046,0.1001,0.1631,0.1062,0.1754
		c0.4679,0.8434,1.0035,1.5667,1.6067,2.1701c0.6033,0.6031,1.3266,1.1387,2.1699,1.6066c0.0123,0.0062,0.0707,0.0416,0.1756,0.1063
		c0.1047,0.0649,0.1784,0.1078,0.2214,0.1295c0.0433,0.0212,0.1064,0.0476,0.1895,0.0784c0.083,0.0305,0.1523,0.046,0.2079,0.046
		c0.1107,0,0.2524-0.0877,0.4248-0.2632c0.1722-0.1755,0.3354-0.3662,0.4892-0.5725c0.1538-0.2064,0.3231-0.3971,0.5078-0.5726
		c0.1846-0.1754,0.3384-0.2631,0.4615-0.2631c0.0862,0,0.174,0.0215,0.2632,0.0645c0.0895,0.0432,0.1985,0.1094,0.3279,0.1985
		c0.1293,0.0895,0.2062,0.1432,0.2308,0.1617c0.1538,0.0922,0.3184,0.1876,0.494,0.2861c0.1754,0.0985,0.3709,0.2063,0.5864,0.3233
		c0.2153,0.117,0.3816,0.2092,0.4984,0.277c0.431,0.2153,0.665,0.3785,0.7018,0.4893c0.0186,0.0435,0.0278,0.108,0.0276,0.1945
		C39.2778,34.6745,39.2471,34.8914,39.1854,35.1591z"/>
</g>
</svg>
