<?xml version="1.0" encoding="utf-8"?>
<!-- Generator: Adobe Illustrator 25.2.3, SVG Export Plug-In . SVG Version: 6.00 Build 0)  -->
<svg version="1.1" id="Capa_1" xmlns="http://www.w3.org/2000/svg" xmlns:xlink="http://www.w3.org/1999/xlink" x="0px" y="0px"
	 viewBox="0 0 279 61" enable-background="new 0 0 279 61" xml:space="preserve">
<path fill="#28a745" d="M268.3301,61H10.6699C4.7771,61,0,56.2229,0,50.3301V10.6699C0,4.7771,4.7771,0,10.6699,0l257.6602,0
	C274.2229,0,279,4.7771,279,10.6699v39.6602C279,56.2229,274.2229,61,268.3301,61z"/>
<g>
	<path fill="#FFFFFF" d="M79.4028,37.676c-0.9814,0-1.7944-0.1816-2.4399-0.5439c-0.6455-0.3628-1.1333-0.8696-1.4639-1.52
		c-0.3306-0.6509-0.5122-1.4082-0.5439-2.272c-0.0107-0.4375-0.0161-0.9067-0.0161-1.4082s0.0054-0.9814,0.0161-1.4399
		c0.0317-0.8643,0.2134-1.6211,0.5439-2.272c0.3306-0.6504,0.8184-1.1572,1.4639-1.52s1.4585-0.5439,2.4399-0.5439
		c0.7363,0,1.3813,0.1016,1.936,0.3037c0.5547,0.2031,1.0161,0.4751,1.3843,0.8159c0.3677,0.3418,0.6479,0.7231,0.8398,1.144
		c0.1919,0.4219,0.2983,0.856,0.3198,1.3042c0.0107,0.0962-0.0186,0.1758-0.0879,0.2402c-0.0693,0.064-0.1519,0.0957-0.248,0.0957
		H82.667c-0.0962,0-0.1787-0.0264-0.248-0.0801c-0.0693-0.0532-0.1201-0.1489-0.1519-0.2881
		c-0.1816-0.8315-0.52-1.4023-1.0161-1.7119c-0.4961-0.3091-1.1177-0.4639-1.8638-0.4639c-0.8535,0-1.5308,0.2427-2.0322,0.728
		s-0.7734,1.2612-0.8159,2.3281c-0.0322,0.8745-0.0322,1.7705,0,2.688c0.0425,1.0664,0.3145,1.8428,0.8159,2.3276
		c0.5015,0.4858,1.1787,0.728,2.0322,0.728c0.7461,0,1.3677-0.1543,1.8638-0.4639c0.4961-0.3091,0.8345-0.8799,1.0161-1.7119
		c0.0317-0.1387,0.0825-0.2344,0.1519-0.2881c0.0693-0.0532,0.1519-0.0801,0.248-0.0801h0.8799c0.0962,0,0.1787,0.0322,0.248,0.0962
		s0.0986,0.144,0.0879,0.2397c-0.0215,0.4482-0.1279,0.8828-0.3198,1.3042s-0.4722,0.8027-0.8398,1.144
		c-0.3682,0.3413-0.8296,0.6133-1.3843,0.8159S80.1392,37.676,79.4028,37.676z"/>
	<path fill="#FFFFFF" d="M90.043,37.676c-0.9067,0-1.6855-0.1577-2.3364-0.4722c-0.6504-0.3145-1.1519-0.7998-1.5039-1.4561
		c-0.3521-0.6558-0.5493-1.48-0.5918-2.4722c-0.0107-0.4692-0.0161-0.9199-0.0161-1.3516c0-0.4321,0.0054-0.8828,0.0161-1.3521
		c0.0425-0.9814,0.248-1.8003,0.6157-2.4561c0.3682-0.6562,0.8804-1.1465,1.5361-1.4722c0.6562-0.3252,1.416-0.4878,2.2803-0.4878
		c0.8745,0,1.6396,0.1626,2.2959,0.4878c0.6558,0.3257,1.1704,0.8159,1.5439,1.4722c0.373,0.6558,0.5762,1.4746,0.6079,2.4561
		c0.0215,0.4692,0.0322,0.9199,0.0322,1.3521c0,0.4316-0.0107,0.8823-0.0322,1.3516c-0.0317,0.9922-0.2266,1.8164-0.584,2.4722
		c-0.3574,0.6562-0.8613,1.1416-1.5122,1.4561C91.7441,37.5183,90.96,37.676,90.043,37.676z M90.043,36.3157
		c0.8213,0,1.4902-0.2451,2.0078-0.7358c0.5171-0.4902,0.7974-1.2852,0.8398-2.3838c0.0215-0.48,0.0322-0.9097,0.0322-1.2881
		s-0.0107-0.8027-0.0322-1.272c-0.0215-0.7363-0.1572-1.3335-0.4077-1.792c-0.251-0.4585-0.584-0.7944-1-1.0083
		c-0.416-0.2129-0.896-0.3198-1.4399-0.3198c-0.5229,0-0.9922,0.1069-1.4082,0.3198c-0.416,0.2139-0.7495,0.5498-1,1.0083
		c-0.251,0.4585-0.3921,1.0557-0.4238,1.792c-0.0107,0.4692-0.0161,0.8936-0.0161,1.272s0.0054,0.8081,0.0161,1.2881
		c0.0425,1.0986,0.3252,1.8936,0.8477,2.3838C88.5811,36.0706,89.2427,36.3157,90.043,36.3157z"/>
	<path fill="#FFFFFF" d="M97.2266,37.5159c-0.1064,0-0.1943-0.0347-0.2637-0.104c-0.0698-0.0693-0.104-0.1572-0.104-0.2642V26.7
		c0-0.1172,0.0342-0.2104,0.104-0.2803c0.0693-0.0688,0.1572-0.104,0.2637-0.104h0.8003c0.1279,0,0.2241,0.0322,0.2881,0.0962
		s0.1011,0.1177,0.1118,0.1602l3.3921,6.4639l3.4077-6.4639c0.0215-0.0425,0.0615-0.0962,0.1201-0.1602s0.1523-0.0962,0.2803-0.0962
		h0.7837c0.1172,0,0.2104,0.0352,0.2803,0.104c0.0693,0.0698,0.104,0.1631,0.104,0.2803v10.4478
		c0,0.1069-0.0347,0.1948-0.104,0.2642c-0.0698,0.0693-0.1631,0.104-0.2803,0.104h-0.7837c-0.1069,0-0.1948-0.0347-0.2642-0.104
		s-0.104-0.1572-0.104-0.2642v-7.8721l-2.6719,5.2163c-0.043,0.1064-0.1069,0.1895-0.1919,0.248
		c-0.0859,0.0586-0.1924,0.0879-0.3203,0.0879h-0.4961c-0.1387,0-0.248-0.0293-0.3276-0.0879
		c-0.0801-0.0586-0.147-0.1416-0.2002-0.248l-2.6719-5.2163v7.8721c0,0.1069-0.0347,0.1948-0.104,0.2642
		c-0.0698,0.0693-0.1577,0.104-0.2642,0.104H97.2266z"/>
	<path fill="#FFFFFF" d="M109.9307,37.5159c-0.1172,0-0.208-0.0347-0.272-0.104s-0.0957-0.1572-0.0957-0.2642V26.7
		c0-0.1172,0.0317-0.2104,0.0957-0.2803c0.064-0.0688,0.1548-0.104,0.272-0.104h4.0645c0.7891,0,1.4741,0.1284,2.0557,0.3843
		s1.0322,0.6372,1.3521,1.144s0.48,1.1387,0.48,1.896s-0.1602,1.3867-0.48,1.8877c-0.3198,0.5015-0.7705,0.8804-1.3521,1.1362
		s-1.2666,0.3838-2.0557,0.3838h-2.832v4c0,0.1069-0.0352,0.1948-0.104,0.2642c-0.0698,0.0693-0.1631,0.104-0.2803,0.104H109.9307z
		 M111.147,31.804h2.7681c0.7891,0,1.3813-0.1763,1.7759-0.5283c0.3945-0.3516,0.5918-0.8638,0.5918-1.5356
		c0-0.6611-0.1919-1.1733-0.5757-1.5361c-0.3843-0.3623-0.9814-0.5439-1.792-0.5439h-2.7681V31.804z"/>
	<path fill="#FFFFFF" d="M120.2026,37.5159c-0.1172,0-0.208-0.0347-0.272-0.104s-0.0957-0.1572-0.0957-0.2642V26.7
		c0-0.1172,0.0317-0.2104,0.0957-0.2803c0.064-0.0688,0.1548-0.104,0.272-0.104h3.9043c1.2051,0,2.1602,0.2827,2.8638,0.8481
		c0.7041,0.5654,1.0562,1.4028,1.0562,2.5122c0,0.8213-0.2056,1.4907-0.6162,2.0078c-0.4106,0.5176-0.9678,0.8774-1.6719,1.0801
		l2.4639,4.2559c0.0322,0.064,0.0483,0.123,0.0483,0.1763c0,0.0854-0.0347,0.1597-0.104,0.2236
		c-0.0698,0.064-0.147,0.0962-0.2319,0.0962h-0.7681c-0.1816,0-0.3149-0.0479-0.3999-0.144
		c-0.0859-0.0962-0.1602-0.1919-0.2241-0.2881l-2.3203-4.064h-2.7998v4.1279c0,0.1069-0.0347,0.1948-0.104,0.2642
		s-0.1626,0.104-0.2798,0.104H120.2026z M121.4028,31.6599h2.6401c0.7998,0,1.397-0.168,1.792-0.5039
		c0.3945-0.3359,0.5918-0.8345,0.5918-1.4961c0-0.6504-0.1948-1.1465-0.584-1.4883c-0.3892-0.3408-0.9893-0.5117-1.7998-0.5117
		h-2.6401V31.6599z"/>
	<path fill="#FFFFFF" d="M129.563,37.5159c-0.0854,0-0.1602-0.0322-0.2241-0.0962s-0.0962-0.1382-0.0962-0.2236
		c0-0.0532,0.0054-0.1123,0.0161-0.1763l3.9683-10.3521c0.0425-0.1064,0.1011-0.1919,0.1758-0.2559s0.1865-0.0962,0.3359-0.0962
		h1.0879c0.1387,0,0.248,0.0322,0.3281,0.0962s0.1411,0.1494,0.1841,0.2559l3.9521,10.3521c0.0215,0.064,0.0322,0.123,0.0322,0.1763
		c0,0.0854-0.0322,0.1597-0.0967,0.2236c-0.0635,0.064-0.1387,0.0962-0.2236,0.0962h-0.8159c-0.1279,0-0.2217-0.0322-0.2803-0.0962
		s-0.0986-0.1221-0.1201-0.1758l-0.8799-2.272h-5.248l-0.8799,2.272c-0.0107,0.0537-0.0479,0.1118-0.1118,0.1758
		s-0.1602,0.0962-0.2881,0.0962H129.563z M132.123,33.5959h4.3198l-2.1602-5.6802L132.123,33.5959z"/>
	<path fill="#FFFFFF" d="M144.9062,37.5159c-0.1172,0-0.208-0.0347-0.2715-0.104c-0.0645-0.0693-0.0967-0.1572-0.0967-0.2642V26.7
		c0-0.1172,0.0322-0.2104,0.0967-0.2803c0.0635-0.0688,0.1543-0.104,0.2715-0.104h6.6084c0.1172,0,0.208,0.0352,0.2715,0.104
		c0.0645,0.0698,0.0967,0.1631,0.0967,0.2803v0.6079c0,0.1177-0.0322,0.208-0.0967,0.272c-0.0635,0.064-0.1543,0.0962-0.2715,0.0962
		h-5.4404v3.5039h5.0879c0.1172,0,0.208,0.0347,0.2725,0.104c0.0635,0.0693,0.0957,0.1626,0.0957,0.2798v0.5923
		c0,0.1064-0.0322,0.1948-0.0957,0.2637c-0.0645,0.0698-0.1553,0.104-0.2725,0.104h-5.0879v3.6323h5.5684
		c0.1172,0,0.208,0.0317,0.2715,0.0957c0.0645,0.064,0.0967,0.1548,0.0967,0.272v0.624c0,0.1069-0.0322,0.1948-0.0967,0.2642
		c-0.0635,0.0693-0.1543,0.104-0.2715,0.104H144.9062z"/>
	<path fill="#FFFFFF" d="M154.6016,37.5159c-0.1172,0-0.208-0.0347-0.2715-0.104c-0.0645-0.0693-0.0967-0.1572-0.0967-0.2642V26.7
		c0-0.1172,0.0322-0.2104,0.0967-0.2803c0.0635-0.0688,0.1543-0.104,0.2715-0.104h0.7363c0.1279,0,0.2236,0.0298,0.2881,0.0884
		c0.0635,0.0586,0.1006,0.104,0.1123,0.1357l5.3115,8.1602v-8c0-0.1172,0.0322-0.2104,0.0957-0.2803
		c0.0645-0.0688,0.1553-0.104,0.2725-0.104h0.7676c0.1172,0,0.2109,0.0352,0.2803,0.104c0.0693,0.0698,0.1035,0.1631,0.1035,0.2803
		v10.4321c0,0.1064-0.0342,0.1973-0.1035,0.272s-0.1572,0.1118-0.2637,0.1118h-0.7686c-0.1172,0-0.2051-0.0322-0.2637-0.0962
		s-0.0986-0.1064-0.1201-0.1279l-5.2959-8.0801v7.936c0,0.1069-0.0352,0.1948-0.1045,0.2642s-0.1621,0.104-0.2793,0.104H154.6016z"
		/>
	<path fill="#FFFFFF" d="M169.625,37.5159c-0.1172,0-0.208-0.0347-0.2715-0.104c-0.0645-0.0693-0.0967-0.1572-0.0967-0.2642V26.6838
		c0-0.1064,0.0322-0.1943,0.0967-0.2642c0.0635-0.0688,0.1543-0.104,0.2715-0.104h0.8486c0.1064,0,0.1914,0.0352,0.2559,0.104
		c0.0635,0.0698,0.0957,0.1577,0.0957,0.2642v9.4399h5.3281c0.1172,0,0.208,0.0347,0.2715,0.104
		c0.0645,0.0698,0.0967,0.1626,0.0967,0.2803v0.6396c0,0.1069-0.0322,0.1948-0.0967,0.2642
		c-0.0635,0.0693-0.1543,0.104-0.2715,0.104H169.625z"/>
	<path fill="#FFFFFF" d="M178.6328,37.5159c-0.1172,0-0.208-0.0347-0.2715-0.104c-0.0645-0.0693-0.0967-0.1572-0.0967-0.2642
		V26.6838c0-0.1064,0.0322-0.1943,0.0967-0.2642c0.0635-0.0688,0.1543-0.104,0.2715-0.104h0.8486
		c0.1064,0,0.1943,0.0352,0.2637,0.104c0.0693,0.0698,0.1035,0.1577,0.1035,0.2642v10.4639c0,0.1069-0.0342,0.1948-0.1035,0.2642
		s-0.1572,0.104-0.2637,0.104H178.6328z M178.6172,25.5159c-0.1709,0-0.2559-0.0854-0.2559-0.2559
		c0-0.0854,0.0264-0.1548,0.0801-0.208l1.1992-1.4399c0.0967-0.1177,0.1816-0.1948,0.2568-0.2324
		c0.0742-0.0371,0.1865-0.0557,0.3359-0.0557h1.1836c0.2021,0,0.3037,0.1016,0.3037,0.3037c0,0.0747-0.0264,0.1392-0.0801,0.1924
		l-1.8555,1.52c-0.0859,0.0747-0.166,0.1226-0.2402,0.1436c-0.0742,0.0215-0.1709,0.0322-0.2881,0.0322H178.6172z"/>
	<path fill="#FFFFFF" d="M183.001,37.5159c-0.1172,0-0.208-0.0347-0.2715-0.104c-0.0645-0.0693-0.0967-0.1572-0.0967-0.2642V26.7
		c0-0.1172,0.0322-0.2104,0.0967-0.2803c0.0635-0.0688,0.1543-0.104,0.2715-0.104h0.7363c0.1279,0,0.2236,0.0298,0.2881,0.0884
		c0.0635,0.0586,0.1006,0.104,0.1123,0.1357l5.3115,8.1602v-8c0-0.1172,0.0322-0.2104,0.0957-0.2803
		c0.0645-0.0688,0.1553-0.104,0.2725-0.104h0.7676c0.1172,0,0.2109,0.0352,0.2803,0.104c0.0693,0.0698,0.1035,0.1631,0.1035,0.2803
		v10.4321c0,0.1064-0.0342,0.1973-0.1035,0.272s-0.1572,0.1118-0.2637,0.1118h-0.7686c-0.1172,0-0.2051-0.0322-0.2637-0.0962
		s-0.0986-0.1064-0.1201-0.1279l-5.2959-8.0801v7.936c0,0.1069-0.0352,0.1948-0.1045,0.2642s-0.1621,0.104-0.2793,0.104H183.001z"/>
	<path fill="#FFFFFF" d="M194.1045,37.5159c-0.1172,0-0.208-0.0347-0.2715-0.104c-0.0645-0.0693-0.0967-0.1572-0.0967-0.2642V26.7
		c0-0.1172,0.0322-0.2104,0.0967-0.2803c0.0635-0.0688,0.1543-0.104,0.2715-0.104h6.6084c0.1172,0,0.208,0.0352,0.2715,0.104
		c0.0645,0.0698,0.0967,0.1631,0.0967,0.2803v0.6079c0,0.1177-0.0322,0.208-0.0967,0.272c-0.0635,0.064-0.1543,0.0962-0.2715,0.0962
		h-5.4404v3.5039h5.0879c0.1172,0,0.208,0.0347,0.2725,0.104c0.0635,0.0693,0.0957,0.1626,0.0957,0.2798v0.5923
		c0,0.1064-0.0322,0.1948-0.0957,0.2637c-0.0645,0.0698-0.1553,0.104-0.2725,0.104h-5.0879v3.6323h5.5684
		c0.1172,0,0.208,0.0317,0.2715,0.0957c0.0645,0.064,0.0967,0.1548,0.0967,0.272v0.624c0,0.1069-0.0322,0.1948-0.0967,0.2642
		c-0.0635,0.0693-0.1543,0.104-0.2715,0.104H194.1045z"/>
	<path fill="#FFFFFF" d="M202.6807,37.5159c-0.085,0-0.1592-0.0322-0.2236-0.0962s-0.0957-0.1382-0.0957-0.2236
		c0-0.0532,0.0049-0.1123,0.0156-0.1763l3.9678-10.3521c0.043-0.1064,0.1016-0.1919,0.1768-0.2559
		c0.0742-0.064,0.1855-0.0962,0.3359-0.0962h1.0879c0.1387,0,0.248,0.0322,0.3281,0.0962c0.0791,0.064,0.1406,0.1494,0.1836,0.2559
		l3.9521,10.3521c0.0215,0.064,0.0322,0.123,0.0322,0.1763c0,0.0854-0.0322,0.1597-0.0967,0.2236
		c-0.0635,0.064-0.1387,0.0962-0.2236,0.0962h-0.8164c-0.1279,0-0.2207-0.0322-0.2793-0.0962
		c-0.0596-0.064-0.0996-0.1221-0.1201-0.1758l-0.8799-2.272h-5.248l-0.8799,2.272c-0.0107,0.0537-0.0488,0.1118-0.1123,0.1758
		c-0.0645,0.064-0.1602,0.0962-0.2881,0.0962H202.6807z M205.2412,33.5959h4.3193l-2.1592-5.6802L205.2412,33.5959z"/>
</g>
<g>
	<path fill="#FFFFFF" d="M252.3697,29.773l-9.1505-9.1426c-0.4013-0.4013-1.0498-0.4013-1.4513,0
		c-0.4013,0.3989-0.4013,1.0474,0,1.4487l8.4196,8.4196l-8.4196,8.4196c-0.4013,0.4013-0.4013,1.0498,0,1.4514
		c0.4013,0.4016,1.0551,0.4013,1.4564,0l9.1453-9.1453C252.7657,30.8304,252.7657,30.1693,252.3697,29.773z"/>
</g>
<g>
	<g>
		<path fill="#FFFFFF" d="M32.9167,17.5c-7.1797,0-13,5.8203-13,13s5.8203,13,13,13s13-5.8203,13-13S40.0964,17.5,32.9167,17.5z"/>
	</g>
	<path fill="#28a745" d="M38.4746,33.4887l1.8965-5.6777c0.0951-0.2728,0.0233-0.4366-0.0528-0.5455
		c-0.1966-0.277-0.6005-0.2791-0.6787-0.2791l-10.7212-0.0022l-0.2875-1.3584c-0.0761-0.3203-0.3045-0.6258-0.7653-0.6258h-3.0128
		c-0.3129,0-0.482,0.1469-0.482,0.4387v0.7833c0,0.2822,0.1692,0.3562,0.4926,0.3562h2.5456l1.9451,8.2666
		c-0.3087,0.3271-0.4757,0.8045-0.4757,1.2506c0,0.98,0.7801,1.8837,1.7759,1.8837c0.9429,0,1.647-0.8827,1.7632-1.4086h3.7908
		c0.1163,0.5259,0.6872,1.4292,1.7612,1.4292c0.9811,0,1.7781-0.8489,1.7781-1.8278c0-0.9736-0.592-1.8373-1.7675-1.8373
		c-0.4884,0-1.0676,0.2633-1.3362,0.6575h-4.6597c-0.3383-0.5254-0.8012-0.6881-1.2686-0.7072l-0.0634-0.3447h7.0889
		C38.276,33.9407,38.3796,33.7467,38.4746,33.4887z M37.9842,35.4835c0.3678,0,0.6681,0.2992,0.6681,0.6681
		s-0.3002,0.6681-0.6702,0.6681c-0.3678,0-0.6681-0.3002-0.6681-0.6692C37.314,35.7811,37.6142,35.4824,37.9842,35.4835z
		 M31.316,36.1505c0,0.3731-0.3045,0.6765-0.6744,0.6765c-0.3742-0.0011-0.6765-0.3034-0.6765-0.6765
		c0-0.3722,0.3023-0.6755,0.6765-0.6755C31.0137,35.4745,31.316,35.7785,31.316,36.1505z"/>
</g>
</svg>
